Division,WeightClassKg,Name,Best3SquatKg,Best3BenchKg,Best3DeadliftKg,TotalKg,Sex,Equipment,Event,BodyweightKg,Place
Amateur Teen 16-17,52,Rachel Ackerman,104.33,68.04,129.27,301.64,F,Wraps,SBD,,1
Amateur Open,52,Natanya Gornstein,56.7,34.02,99.79,190.51,F,Wraps,SBD,,1
Amateur Open,67.5,Sydney Graham,163.29,61.23,136.08,360.61,F,Wraps,SBD,,1
Amateur Open,82.5,Brooke Griffith,83.91,72.57,113.4,269.89,F,Wraps,SBD,,1
Amateur Open,90+,Mia Casoli,124.74,68.04,154.22,347,F,Wraps,SBD,,1
Amateur Submasters 33-39,67.5,Sally Andersen,131.54,90.72,167.83,390.09,F,Wraps,SBD,,1
Amateur Masters 40-44,67.5,Amy Kratzer,63.5,68.04,124.74,256.28,F,Wraps,SBD,,1
Amateur Masters 45-49,60,Trinh Inzerillo,104.33,56.7,104.33,265.35,F,Wraps,SBD,,1
Amateur Masters 45-49,75,Sela Sanchez,102.06,63.5,149.69,315.25,F,Wraps,SBD,,1
Amateur Masters 55-59,75,Donna Opuszynski,95.25,49.9,111.13,256.28,F,Wraps,SBD,,1
Amateur Masters 70-74,56,Carla Cohen,34.02,31.75,77.11,142.88,F,Wraps,SBD,,1
Pro Open,56,Ashley Fulton,131.54,77.11,154.22,362.87,F,Wraps,SBD,,1
Pro Open,60,Lindsey Pogson,127.01,79.38,147.42,353.8,F,Wraps,SBD,,1
Pro Open,60,Pamela Sikes,104.33,49.9,113.4,267.62,F,Wraps,SBD,,2
Pro Masters 40-44,90+,Rochelle Dubbs,191.64,129.27,165.56,486.48,F,Wraps,SBD,,1
Amateur Masters 65-69,52,Cheryl Keeling,,43.09,,43.09,F,Raw,B,,1
Pro Open,90+,Cassidy Comly,,136.08,,136.08,F,Raw,B,,1
Pro Masters 60-64,67.5,Abra Smith,,47.63,,47.63,F,Raw,B,,1
Amateur Open,90,Stacee Maushart,,108.86,142.88,251.74,F,Multi-ply,BD,,1
Pro Open,56,Blake Tobin,188.24,104.33,,292.57,F,Wraps,SB,,1
Amateur Teen 13-15,67.5,Andrew Sheaffer,113.4,74.84,142.88,331.12,M,Wraps,SBD,,1
Amateur Teen 13-15,67.5,Reece Meier,88.45,74.84,117.93,281.23,M,Wraps,SBD,,2
Amateur Teen 13-15,75,Noah Himes,102.06,45.36,111.13,258.55,M,Wraps,SBD,,1
Amateur Teen 13-15,82.5,Nicholas Sweikert,163.29,92.99,188.24,444.52,M,Wraps,SBD,,1
Amateur Teen 13-15,82.5,Tanner Blum,58.97,54.43,102.06,215.46,M,Wraps,SBD,,2
Amateur Teen 16-17,82.5,Tyler Benner,147.42,113.4,201.85,462.66,M,Wraps,SBD,,1
Amateur Teen 16-17,100,Maxwell Foster,165.56,113.4,210.92,489.88,M,Wraps,SBD,,1
Amateur Juniors 20-23,75,Joseph Maier,158.76,92.99,183.7,435.45,M,Wraps,SBD,,1
Amateur Juniors 20-23,90,Selvin Castro,226.8,138.35,235.87,601.01,M,Wraps,SBD,,1
Amateur Juniors 20-23,90,Tyler Mathias,229.06,111.13,233.6,573.79,M,Wraps,SBD,,2
Amateur Open,75,Lauren Cohen,265.35,163.29,215.46,644.1,M,Wraps,SBD,,1
Amateur Open,75,Doug Kline,158.76,113.4,197.31,469.47,M,Wraps,SBD,,2
Amateur Open,82.5,Ramon Chavez,226.8,136.08,244.94,607.81,M,Wraps,SBD,,1
Amateur Open,82.5,Charles Concepcion,204.12,163.29,226.8,594.21,M,Wraps,SBD,,2
Amateur Open,82.5,Jacob Shawley,206.38,113.4,226.8,546.58,M,Wraps,SBD,,3
Amateur Open,82.5,Anthony Newton,199.58,124.74,210.92,535.24,M,Wraps,SBD,,4
Amateur Open,90,Demetre Forney,288.03,174.63,317.51,780.18,M,Wraps,SBD,,1
Amateur Open,90,Tom Basinger,249.48,129.27,235.87,614.62,M,Wraps,SBD,,2
Amateur Open,90,Stephen Torres,183.7,122.47,226.8,532.97,M,Wraps,SBD,,3
Amateur Open,110,Stephen Kelhower No,249.48,156.49,229.06,635.03,M,Wraps,SBD,,3
Amateur Masters 40-44,82.5,Sean Kelly,229.06,142.88,263.08,635.03,M,Wraps,SBD,,1
Amateur Masters 50-54,90,Dave Bally,138.35,104.33,185.97,428.64,M,Wraps,SBD,,1
Amateur Masters 65-69,75,Doug Kline,158.76,113.4,197.31,469.47,M,Wraps,SBD,,1
Amateur Masters 70-74,67.5,Robert Cohen,102.06,70.31,145.15,317.51,M,Wraps,SBD,,1
Amateur Open,75,Theron Bowling,192.78,136.08,226.8,555.65,M,Multi-ply,SBD,,1
Amateur Masters 55-59,75,Doug Schader,172.37,108.86,158.76,439.98,M,Multi-ply,SBD,,1
Amateur Masters 80+,75,George Christman,145.15,92.99,170.1,408.23,M,Multi-ply,SBD,,1
Pro Teen 13-15,67.5,Andrew Sheaffer,113.4,74.84,142.88,331.12,M,Wraps,SBD,,1
Pro Teen 13-15,82.5,Tanner Blum,58.97,54.43,102.06,215.46,M,Wraps,SBD,,1
Pro Open,75,Sean Hightman,267.62,159.89,244.94,672.45,M,Wraps,SBD,,1
Pro Open,82.5,Ralph Talotti,249.48,158.76,260.82,669.05,M,Wraps,SBD,,1
Pro Open,82.5,Matthew Staub,242.67,179.17,242.67,664.51,M,Wraps,SBD,,2
Pro Submasters 33-39,75,Sean Hightman,267.62,159.89,244.94,672.45,M,Wraps,SBD,,1
Pro Masters 50-54,90,Bill Huling,226.8,151.95,274.42,653.17,M,Wraps,SBD,,1
Pro Police,75,Sean Hightman,267.62,159.89,244.94,672.45,M,Wraps,SBD,,1
Pro Masters 55-59,75,Doug Schader,172.37,108.86,158.76,439.98,M,Multi-ply,SBD,,1
Amateur Open,75,Adam Varone,,136.08,,136.08,M,Raw,B,,1
Amateur Masters 55-59,75,Matthew Copley III,,127.01,,127.01,M,Raw,B,,1
Amateur Masters 60-64,67.5,Kimber Smith,,95.25,,95.25,M,Raw,B,,1
Amateur Masters 60-64,82.5,Robert Abel,,108.86,,108.86,M,Raw,B,,1
Pro Masters 60-64,82.5,Thomas Proya,,170.1,,170.1,M,Raw,B,,1
Pro Masters 65-69,90,Todd Campo,,161.03,,161.03,M,Raw,B,,1
Pro Police,82.5,Matthew Klingenstein,,136.08,,136.08,M,Raw,B,,1
Pro Open,82.5,Charles Cannavino,,226.8,,226.8,M,Multi-ply,B,,1
Pro Masters 40-44,82.5,Charles Cannavino,,226.8,,226.8,M,Multi-ply,B,,1
Amateur Teen 13-15,75,Daniel Sweikert,,45.36,86.18,131.54,M,Raw,BD,,1
Pro Open,90,Tommy O'Connor,,210.92,272.16,483.08,M,Raw,BD,,1
Pro Submasters 33-39,90,Tommy O'Connor,,210.92,272.16,483.08,M,Raw,BD,,1
Amateur Juniors 20-23,110,Michael Graham,294.84,174.63,301.64,771.11,M,Wraps,SBD,,1
Amateur Juniors 20-23,110,Noah Miller,278.96,163.29,283.5,725.75,M,Wraps,SBD,,2
Amateur Juniors 20-23,110,Nicholas Kopp,217.72,145.15,231.33,594.21,M,Wraps,SBD,,3
Amateur Open,100,Will Till,272.16,170.1,242.67,684.92,M,Wraps,SBD,,1
Amateur Open,100,Jesse Fulk,204.12,145.15,249.48,598.74,M,Wraps,SBD,,2
Amateur Open,100,Kevin Kortyna,229.06,145.15,208.65,582.87,M,Wraps,SBD,,3
Amateur Open,100,Wyatt Neal,183.7,149.69,233.6,566.99,M,Wraps,SBD,,4
Amateur Open,110,RJ Heithaus,247.21,167.83,274.42,689.46,M,Wraps,SBD,,1
Amateur Open,110,Toby Kitchen,263.08,142.88,242.67,648.64,M,Wraps,SBD,,2
Amateur Open,125,Jordan Ferguson,226.8,158.76,226.8,612.35,M,Wraps,SBD,,1
Amateur Open,125,Brent Gobat,183.7,104.33,249.48,537.51,M,Wraps,SBD,,2
Amateur Open,140+,William Hall,249.48,199.58,276.69,725.75,M,Wraps,SBD,,1
Amateur Submasters 33-39,100,Will Till,272.16,170.1,242.67,684.92,M,Wraps,SBD,,1
Amateur Submasters 33-39,100,Scott Musselman,195.04,158.76,263.08,616.89,M,Wraps,SBD,,2
Amateur Masters 40-44,110,Christian Nagle,156.49,106.59,199.58,462.66,M,Wraps,SBD,,1
Amateur Masters 50-54,100,Terry Kelly,154.22,106.59,185.97,446.79,M,Wraps,SBD,,1
Amateur Masters 55-59,110,William Harris,170.1,145.15,237,552.25,M,Wraps,SBD,,1
Amateur Masters 55-59,140,James McKenzie,283.5,124.74,247.21,655.44,M,Wraps,SBD,,1
Amateur Masters 60-64,82.5,Gregory Fanelli,92.99,79.38,176.9,349.27,M,Wraps,SBD,,1
Amateur Police,100,Scott Musselman,195.04,158.76,263.08,616.89,M,Wraps,SBD,,1
Amateur Open,140+,Rodney Woodward Jr,464.93,238.14,272.16,975.22,M,Multi-ply,SBD,,1
Amateur Open,140+,Michael Davies,244.94,238.14,226.8,709.87,M,Multi-ply,SBD,,2
Pro Open,100,Donald Riffle Jr,258.55,163.29,283.5,705.34,M,Wraps,SBD,,1
Pro Open,100,Matthew Clardy,267.62,149.69,274.42,691.73,M,Wraps,SBD,,2
Pro Open,110,Phillip Herndon,385.55,217.72,337.93,941.2,M,Wraps,SBD,,1
Pro Open,110,Ray Hosterman,324.32,210.92,308.44,843.68,M,Wraps,SBD,,2
Pro Open,110,Brandon Schwartz,283.5,185.97,301.64,771.11,M,Wraps,SBD,,3
Pro Open,110,Robert Davis,249.48,208.65,278.96,737.09,M,Wraps,SBD,,4
Pro Open,110,Tyler Cross,258.55,190.51,272.16,721.21,M,Wraps,SBD,,5
Pro Open,110,Daniel Freese,285.76,158.76,263.08,707.6,M,Wraps,SBD,,6
Pro Open,125,Zack Atkins,272.16,145.15,231.33,648.64,M,Wraps,SBD,,1
Pro Open,140,Jordan Conrad,362.87,226.8,362.87,952.54,M,Wraps,SBD,,1
Pro Open,140,Ben Pevarnik,272.16,183.7,272.16,728.02,M,Wraps,SBD,,2
Pro Submasters 33-39,100,Jonathan Idelson,317.51,192.78,308.44,818.73,M,Wraps,SBD,,1
Pro Submasters 33-39,100,Chantz Griffith,306.17,188.24,278.96,773.37,M,Wraps,SBD,,2
Pro Masters 40-44,110,Robert Davis,249.48,208.65,278.96,737.09,M,Wraps,SBD,,1
Pro Masters 45-49,110,Joseph Cross Jr,213.19,151.95,226.8,591.94,M,Wraps,SBD,,1
Pro Masters 55-59,100,John Jacobs,204.12,158.76,230.2,593.07,M,Wraps,SBD,,1
Pro Open,110,Matt Crist,322.05,213.19,294.84,830.07,M,Multi-ply,SBD,,1
Pro Open,110,Matthew MacArthur,328.85,215.46,249.48,793.79,M,Multi-ply,SBD,,2
Pro Open,140,Nick Showman,396.89,294.84,317.51,1009.24,M,Multi-ply,SBD,,1
Pro Open,140,Matthew Haught,437.72,247.21,312.98,997.9,M,Multi-ply,SBD,,2
Pro Open,140+,Oso Vervelakis,517.1,322.05,335.66,1174.8,M,Multi-ply,SBD,,1
Pro Masters 40-44,140+,Oso Vervelakis,517.1,322.05,335.66,1174.8,M,Multi-ply,SBD,,1
Amateur Masters 40-44,100,Jeremy Elston,,179.17,,179.17,M,Raw,B,,1
Amateur Masters 55-59,110,Knight Smith,,196.18,,196.18,M,Raw,B,,1
Amateur Masters 70-74,100,Brent Stine,,106.59,,106.59,M,Raw,B,,1
Amateur Masters 55-59,140,Chris Lajoie,,328.85,,328.85,M,Multi-ply,B,,1
Pro Open,125,Joshua Phipps,,208.65,,208.65,M,Raw,B,113.58,1
Pro Open,125,Derek Keiser,,208.65,,208.65,M,Raw,B,124.96,2
Pro Police,100,Jeremy Elston,,179.17,,179.17,M,Raw,B,,1
Pro Police,125,Joshua Phipps,,208.65,,208.65,M,Raw,B,,1
Amateur Masters 65-69,140,Bill Schnepf,,163.29,226.8,390.09,M,Raw,BD,,1
Amateur Police,110,Sean Kelley,,181.44,229.06,410.5,M,Raw,BD,,1
Amateur Open,100,Scott Umberger,,219.99,265.35,485.34,M,Multi-ply,BD,,1
Pro Open,125,Jake Immerman,,226.8,204.12,430.91,M,Raw,BD,,1
Pro Submasters 33-39,125,Joshua Phipps,,,317.51,317.51,M,Raw,D,,1
Pro Police,125,Joshua Phipps,,,317.51,317.51,M,Raw,D,,1
