Division,WeightClassKg,Place,Name,Team,BodyweightKg,Best3SquatKg,Best3BenchKg,Best3DeadliftKg,TotalKg,Equipment,Event,Sex,BirthDate
Girls,47.85,1,Sage Thompson,Lometa,45.27,83.91,56.7,95.25,235.87,Single-ply,SBD,F,
Girls,51.94,1,Kailey Scheriger,Sidney,51.89,97.52,45.36,104.33,247.21,Single-ply,SBD,F,
Girls,51.94,2,Savanna Simerly,Lometa,49.44,77.11,40.82,77.11,195.04,Single-ply,SBD,F,
Girls,51.94,3,Sami Thompson,Lometa,51.89,70.31,36.29,86.18,192.78,Single-ply,SBD,F,
Girls,56.02,1,Catalina Ramirez,Hillsboro,55.88,104.33,47.63,88.45,240.4,Single-ply,SBD,F,
Girls,60.1,1,Alri Lindeque,Sidney,59.78,127.01,58.97,127.01,312.98,Single-ply,SBD,F,
Girls,60.1,2,Nikayla Waller,Lometa,57.61,111.13,65.77,127.01,303.91,Single-ply,SBD,F,
Girls,60.1,3,Anglela Terrazas,Hillsboro,56.7,99.79,43.09,86.18,229.06,Single-ply,SBD,F,
Girls,60.1,4,Josmary Munoz,Sidney,59.15,90.72,40.82,97.52,229.06,Single-ply,SBD,F,
Girls,60.1,5,Alllie Hale,Hillsboro,58.6,65.77,36.29,77.11,179.17,Single-ply,SBD,F,
Girls,67.36,1,Michelle Vargas,Hillsboro,65.32,97.52,56.7,92.99,247.21,Single-ply,SBD,F,
Girls,67.36,2,Jamie Allgood,Ranger,63.41,81.65,43.09,102.06,226.8,Single-ply,SBD,F,
Girls,67.36,3,Jordan Boles,Lometa,61.42,,38.56,81.65,120.2,Single-ply,BD,F,
Girls,75.07,1,Kaylee Devries,Hillsboro,74.93,140.61,79.38,124.74,344.73,Single-ply,SBD,F,
Girls,75.07,2,Ayleen Gonzales,Hillsboro,71.58,115.67,68.04,92.99,276.69,Single-ply,SBD,F,
Girls,75.07,3,Dominique Rico,Hico,68.58,104.33,45.36,115.67,265.35,Single-ply,SBD,F,
Girls,75.07,4,Allyson Rea,Hillsboro,70.85,106.59,49.9,104.33,260.82,Single-ply,SBD,F,
Girls,75.07,5,Kilyana Hughes,Hillsboro,74.3,90.72,54.43,90.72,235.87,Single-ply,SBD,F,
Girls,82.33,1,Jaceklin Cuervas,Hillsboro,79.83,113.4,47.63,102.06,263.08,Single-ply,SBD,F,
Girls,82.33,2,Kat Ramirez,Hillsboro,78.02,97.52,58.97,72.57,229.06,Single-ply,SBD,F,
Girls,90.04,1,Cydney Morgan,Hico,87.45,158.76,90.72,136.08,385.55,Single-ply,SBD,F,
Girls,90.04,2,Terrra Reed,Coleman,88.99,111.13,54.43,124.74,290.3,Single-ply,SBD,F,
Girls,100.02,1,Deisy Vargas,Hillsboro,92.8,92.99,52.16,95.25,240.4,Single-ply,SBD,F,
Girls,117.71,1,Alisha Parks,Coleman,115.21,124.74,70.31,104.33,299.37,Single-ply,SBD,F,
Girls,117.71,2,Daisy Garza,Coleman,104.24,108.86,56.7,113.4,278.96,Single-ply,SBD,F,
Girls,117.71+,1,Jenessa McKinney,Hico,124.56,,52.16,88.45,140.61,Single-ply,BD,F,
