Division,WeightClassKg,Place,Name,Team,BodyweightKg,Best3SquatKg,Best3BenchKg,Best3DeadliftKg,TotalKg,Equipment,Event,Sex,BirthDate
Boys,51.71,1,Jaime Rios,Big Lake Reagan County,51.48,133.81,77.11,154.22,365.14,Single-ply,SBD,M,
Boys,51.71,2,Andrik Ramirez,Fort Stockton,50.08,117.93,68.04,124.74,310.71,Single-ply,SBD,M,
Boys,51.71,3,Caleb Lee,Monahans,48.81,77.11,45.36,88.45,210.92,Single-ply,SBD,M,
Boys,55.79,1,Zaniel Flores,Kermit,55.02,149.69,81.65,156.49,387.82,Single-ply,SBD,M,
Boys,55.79,2,Kendrick Porras,Fort Stockton,55.52,122.47,61.23,163.29,347,Single-ply,SBD,M,
Boys,55.79,3,Alfredo Castillo,Andrews,53.52,113.4,61.23,158.76,333.39,Single-ply,SBD,M,
Boys,55.79,4,Ivan Zamora,Andrews,55.34,124.74,61.23,131.54,317.51,Single-ply,SBD,M,
Boys,59.87,1,Cristian Garcia #5,Fort Stockton,58.29,131.54,65.77,158.76,356.07,Single-ply,SBD,M,
Boys,59.87,2,Brian Lopez,Big Lake Reagan County,59.6,142.88,77.11,136.08,356.07,Single-ply,SBD,M,
Boys,59.87,3,Aaron Gamboa,Odessa,57.83,95.25,70.31,108.86,274.42,Single-ply,SBD,M,
Boys,59.87,4,Adres Pando,Pecos,59.38,104.33,79.38,90.72,274.42,Single-ply,SBD,M,
Boys,67.13,1,Juan Salgado,Fort Stockton,66.86,183.7,142.88,185.97,512.56,Single-ply,SBD,M,
Boys,67.13,2,Lucas Esparza,Andrews,65.59,176.9,102.06,181.44,460.4,Single-ply,SBD,M,
Boys,67.13,3,Alex Aguilar,Big Lake Reagan County,63.09,142.88,79.38,179.17,401.43,Single-ply,SBD,M,
Boys,67.13,4,Matt Rosas,Wink,61.37,129.27,74.84,129.27,333.39,Single-ply,SBD,M,
Boys,67.13,5,Styer Bradley,McCamey,66.27,122.47,83.91,127.01,333.39,Single-ply,SBD,M,
Boys,67.13,6,Cayden Ruiz,Midland,63.14,120.2,79.38,115.67,315.25,Single-ply,SBD,M,
Boys,67.13,7,Ángel Sánchez,Pecos,63.78,92.99,70.31,106.59,269.89,Single-ply,SBD,M,
Boys,67.13,8,Denys Strokes,Midland,61.05,83.91,70.31,92.99,247.21,Single-ply,SBD,M,
Boys,67.13,DQ,Xavier Urias,McCamey,66.63,102.06,,,,Single-ply,SBD,M,
Boys,67.13,DQ,Adan Gonzales,McCamey,64.46,120.2,,,,Single-ply,SBD,M,
Boys,67.13,DQ,Rene Heredia,Monahans,65.41,81.65,,,,Single-ply,SBD,M,
Boys,74.84,1,Devin Mora,Andrews,71.4,215.46,113.4,215.46,544.31,Single-ply,SBD,M,
Boys,74.84,2,Christian Valles,Andrews,67.86,192.78,122.47,226.8,542.04,Single-ply,SBD,M,
Boys,74.84,3,David Guerrero,Big Lake Reagan County,71.71,215.46,115.67,183.7,514.83,Single-ply,SBD,M,
Boys,74.84,4,Gabriel Calzada,Fort Stockton,72.62,179.17,120.2,176.9,476.27,Single-ply,SBD,M,
Boys,74.84,5,Uber Granado,Fort Stockton,73.12,167.83,97.52,183.7,449.06,Single-ply,SBD,M,
Boys,74.84,6,Ronnie Romero,Fort Stockton,68.63,165.56,92.99,163.29,421.84,Single-ply,SBD,M,
Boys,74.84,7,James Fogle,Odessa,71.53,142.88,92.99,149.69,385.55,Single-ply,SBD,M,
Boys,74.84,8,Dravon Valenzuela,Big Lake Reagan County,71.49,154.22,77.11,142.88,374.21,Single-ply,SBD,M,
Boys,74.84,9,Ryan Munoz,Kermit,71.58,142.88,70.31,120.2,333.39,Single-ply,SBD,M,
Boys,74.84,10,Roman Rivero,Big Lake Reagan County,67.22,111.13,61.23,131.54,303.91,Single-ply,SBD,M,
Boys,74.84,11,Anthony Mcdowell,Kermit,69.72,104.33,65.77,124.74,294.84,Single-ply,SBD,M,
Boys,74.84,12,Cole Purcell,Wink,68.63,106.59,58.97,108.86,274.42,Single-ply,SBD,M,
Boys,74.84,13,Noah Powell,Monahans,71.76,95.25,65.77,108.86,269.89,Single-ply,SBD,M,
Boys,74.84,14,Alex Miranda,Monahans,72.21,77.11,52.16,111.13,240.4,Single-ply,SBD,M,
Boys,74.84,15,Marco Martínez,Alpine,70.03,56.7,43.09,58.97,158.76,Single-ply,SBD,M,
Boys,74.84,DQ,Thomas Wells,Midland,73.16,163.29,,,,Single-ply,SBD,M,
Boys,74.84,DQ,Alejandro Dias,Odessa,74.48,106.59,,,,Single-ply,SBD,M,
Boys,74.84,DQ,Cath Meledon,Pecos,69.58,,,,,Single-ply,SBD,M,
Boys,82.1,1,Christian DeLuna,Big Lake Reagan County,79.29,226.8,120.2,192.78,539.77,Single-ply,SBD,M,
Boys,82.1,2,Juan Saucedo,Big Lake Reagan County,79.51,195.04,133.81,197.31,526.17,Single-ply,SBD,M,
Boys,82.1,3,Tim Avila,Odessa,78.7,192.78,111.13,183.7,487.61,Single-ply,SBD,M,
Boys,82.1,4,Laramie Vires,Odessa,77.61,165.56,104.33,163.29,433.18,Single-ply,SBD,M,
Boys,82.1,5,Zion Ward,Midland,80.2,183.7,79.38,167.83,430.91,Single-ply,SBD,M,
Boys,82.1,6,Brekin Thompson,Odessa,81.83,156.49,102.06,165.56,424.11,Single-ply,SBD,M,
Boys,82.1,7,Michael Ortega,Fort Stockton,80.2,151.95,92.99,158.76,403.7,Single-ply,SBD,M,
Boys,82.1,8,Alex Natera,Alpine,78.65,145.15,97.52,158.76,401.43,Single-ply,SBD,M,
Boys,82.1,9,Blake Aparicio,Midland,75.75,149.69,86.18,149.69,385.55,Single-ply,SBD,M,
Boys,82.1,10,Jackson Talley,Midland,80.6,142.88,70.31,147.42,360.61,Single-ply,SBD,M,
Boys,82.1,DQ,Jezreal Sanhez-Juarez,Odessa,81.96,206.38,,,,Single-ply,SBD,M,
Boys,89.81,1,Esau Flores,Andrews,88.04,215.46,142.88,229.06,587.4,Single-ply,SBD,M,
Boys,89.81,2,Justin Gonzales,Andrews,89.77,213.19,142.88,192.78,548.85,Single-ply,SBD,M,
Boys,89.81,3,Issahia Valenzuela,Big Lake Reagan County,88.81,219.99,106.59,197.31,523.9,Single-ply,SBD,M,
Boys,89.81,4,Grabe Muniz,Wink,82.46,181.44,97.52,181.44,460.4,Single-ply,SBD,M,
Boys,89.81,5,Juan Carreon,Odessa,89.09,161.03,102.06,181.44,444.52,Single-ply,SBD,M,
Boys,89.81,6,Caden Johnson,McCamey,87.23,167.83,108.86,165.56,442.25,Single-ply,SBD,M,
Boys,89.81,7,Angelo Lopez,Kermit,86.5,170.1,102.06,167.83,439.98,Single-ply,SBD,M,
Boys,89.81,8,Colby Buckner,Andrews,83.6,163.29,102.06,147.42,412.77,Single-ply,SBD,M,
Boys,89.81,9,Tristan Pineda,McCamey,88.45,163.29,88.45,156.49,408.23,Single-ply,SBD,M,
Boys,89.81,10,Jesse Putnam,Wink,85.41,149.69,79.38,140.61,369.68,Single-ply,SBD,M,
Boys,89.81,11,Jett Glass,Midland,82.96,136.08,61.23,170.1,367.41,Single-ply,SBD,M,
Boys,89.81,12,Abraham Garcia,Wink,89.54,136.08,74.84,147.42,358.34,Single-ply,SBD,M,
Boys,89.81,13,Brock Aparicio,Midland,84.28,113.4,74.84,136.08,324.32,Single-ply,SBD,M,
Boys,89.81,14,Joseph Vowles,Monahans,89.72,102.06,58.97,127.01,288.03,Single-ply,SBD,M,
Boys,89.81,DQ,Kevin Zepeda-Giron,Odessa,83.32,183.7,,,,Single-ply,SBD,M,
Boys,99.79,1,Gary Brooks,Odessa,99.43,278.96,147.42,215.46,641.83,Single-ply,SBD,M,
Boys,99.79,2,Aaron Olivas,Andrews,91.49,238.14,120.2,197.31,555.65,Single-ply,SBD,M,
Boys,99.79,3,Makial Burrola,Kermit,95.75,188.24,127.01,199.58,514.83,Single-ply,SBD,M,
Boys,99.79,4,Mikel Delgado,Midland,97.75,158.76,92.99,183.7,435.45,Single-ply,SBD,M,
Boys,99.79,5,Christian Aguirre,Odessa,93.62,163.29,97.52,167.83,428.64,Single-ply,SBD,M,
Boys,99.79,6,Eli Hernandez,Big Lake Reagan County,90.81,149.69,90.72,158.76,399.16,Single-ply,SBD,M,
Boys,99.79,7,Lucas Ordonez,Monahans,91.72,136.08,79.38,142.88,358.34,Single-ply,SBD,M,
Boys,99.79,8,Elyin Lopez,Midland,94.03,127.01,70.31,158.76,356.07,Single-ply,SBD,M,
Boys,99.79,9,Gage Strain,Pecos,94.48,117.93,68.04,151.95,337.93,Single-ply,SBD,M,
Boys,99.79,10,Manuel Divila,Big Lake Reagan County,93.71,124.74,79.38,131.54,335.66,Single-ply,SBD,M,
Boys,99.79,11,Miguel Sanchez,McCamey,92.26,124.74,56.7,108.86,290.3,Single-ply,SBD,M,
Boys,109.77,1,Jesus Lopez,Andrews,106.32,249.48,156.49,188.24,594.21,Single-ply,SBD,M,
Boys,109.77,2,Angel Rodríguez,Odessa,106.78,204.12,129.27,206.38,539.77,Single-ply,SBD,M,
Boys,109.77,3,Donnie De La Cruz,Fort Stockton,104.73,226.8,120.2,183.7,530.7,Single-ply,SBD,M,
Boys,109.77,4,Kyle Coffey,Monahans,104.96,204.12,120.2,199.58,523.9,Single-ply,SBD,M,
Boys,109.77,5,Edgar Flores,Fort Stockton,101.47,188.24,124.74,208.65,521.63,Single-ply,SBD,M,
Boys,109.77,6,Nathan Calvarie,Odessa,105.96,165.56,106.59,170.1,442.25,Single-ply,SBD,M,
Boys,109.77,7,Jacob Alston,Monahans,101.42,142.88,97.52,176.9,417.3,Single-ply,SBD,M,
Boys,109.77,8,Ethan Purcell,Wink,102.38,158.76,92.99,142.88,394.63,Single-ply,SBD,M,
Boys,109.77,9,Eliseo Bonilla,Kermit,102.33,129.27,92.99,161.03,383.29,Single-ply,SBD,M,
Boys,109.77,10,Kenneth Ramsey,Monahans,101.88,115.67,83.91,172.37,371.95,Single-ply,SBD,M,
Boys,109.77,11,Drew Coker,Monahans,102.24,136.08,81.65,142.88,360.61,Single-ply,SBD,M,
Boys,124.74,1,Darius Pando,Kermit,113.9,229.06,124.74,215.46,569.26,Single-ply,SBD,M,
Boys,124.74,2,Jayson Pagan,McCamey,110.59,222.26,113.4,195.04,530.7,Single-ply,SBD,M,
Boys,124.74,3,Gerry Salazar,McCamey,118.16,204.12,129.27,181.44,514.83,Single-ply,SBD,M,
Boys,124.74,4,Justin Glass,Big Lake Reagan County,114.4,206.38,113.4,181.44,501.22,Single-ply,SBD,M,
Boys,124.74,5,Isaiah Garcia,McCamey,114.67,192.78,90.72,195.04,478.54,Single-ply,SBD,M,
Boys,124.74,6,Octavio Caballero,Andrews,110.86,158.76,81.65,183.7,424.11,Single-ply,SBD,M,
Boys,124.74,7,Moises Rodriguez,Monahans,111.13,113.4,83.91,142.88,340.19,Single-ply,SBD,M,
Boys,124.74+,1,Albert Aguilar,Pecos,153.45,249.48,176.9,192.78,619.15,Single-ply,SBD,M,
Boys,124.74+,2,Emilio Dominguez,Odessa,137.21,238.14,138.35,197.31,573.79,Single-ply,SBD,M,
Boys,124.74+,3,Jt Gomez,Fort Stockton,146.78,238.14,129.27,188.24,555.65,Single-ply,SBD,M,
Boys,124.74+,4,Jalen Ramirez,Wink,152.68,174.63,90.72,158.76,424.11,Single-ply,SBD,M,
Boys,124.74+,5,Jacob Payne,Monahans,131.9,138.35,83.91,151.95,374.21,Single-ply,SBD,M,
Boys,124.74+,DQ,John Martinez-Guedry,Midland,152.5,188.24,,,,Single-ply,SBD,M,
