Division,WeightClassKg,Place,Name,Team,BodyweightKg,Best3SquatKg,Best3BenchKg,Best3DeadliftKg,TotalKg,Equipment,Event,Sex
Boys,51.71,1,Gavin Jackson,Orangefield,50.8,102.06,68.04,92.99,263.08,Single-ply,SBD,M
Boys,51.71,2,Austin Taylor #5,Orangefield,51.71,90.72,43.09,111.13,244.94,Single-ply,SBD,M
Boys,51.71,DQ,Greyson Kurykendall,Orange Little Cypress-Mauriceville,45.36,70.31,52.16,74.84,,Single-ply,SBD,M
Boys,55.79,1,Ricky Regalado,Silsbee,55.34,117.93,99.79,129.27,347,Single-ply,SBD,M
Boys,59.87,1,Andre Thomas,West Orange-Stark,58.97,104.33,88.45,138.35,331.12,Single-ply,SBD,M
Boys,59.87,2,Dylan Wells,Orangefield,59.87,111.13,72.57,124.74,308.44,Single-ply,SBD,M
Boys,59.87,DQ,Jacob Peters,Orange Little Cypress-Mauriceville,59.87,106.59,70.31,117.93,,Single-ply,SBD,M
Boys,67.13,1,Hunter Angelo,Orange Little Cypress-Mauriceville,67.13,272.16,127.01,244.94,644.1,Single-ply,SBD,M
Boys,67.13,2,Jamarcus Ross,West Orange-Stark,65.77,165.56,81.65,149.69,396.89,Single-ply,SBD,M
Boys,67.13,3,Kayden Norris,Silsbee,63.05,122.47,74.84,133.81,331.12,Single-ply,SBD,M
Boys,67.13,4,Hykeim Taylor,West Orange-Stark,66.68,120.2,81.65,127.01,328.85,Single-ply,SBD,M
Boys,67.13,DQ,Sammy Castro,Orangefield,62.14,63.5,43.09,86.18,,Single-ply,SBD,M
Boys,67.13,DQ,Colby Watts,Silsbee,61.23,136.08,74.84,138.35,,Single-ply,SBD,M
Boys,67.13,DQ,Julian Arteaga,Orange Little Cypress-Mauriceville,62.6,117.93,61.23,127.01,,Single-ply,SBD,M
Boys,67.13,DQ,Aaron Martinez,Orangefield,63.05,104.33,81.65,111.13,,Single-ply,SBD,M
Boys,67.13,DQ,Chris Kyle,Orangefield,67.13,108.86,86.18,102.06,,Single-ply,SBD,M
Boys,74.84,1,Jacob Chapman,Orangefield,69.4,181.44,92.99,163.29,437.72,Single-ply,SBD,M
Boys,74.84,2,Brant Hyatt,Orangefield,72.57,165.56,95.25,172.37,433.18,Single-ply,SBD,M
Boys,74.84,3,Cade Brown,Orangefield,72.57,156.49,102.06,142.88,401.43,Single-ply,SBD,M
Boys,74.84,4,Brett Keel,Orange Little Cypress-Mauriceville,74.84,136.08,92.99,147.42,376.48,Single-ply,SBD,M
Boys,74.84,DQ,Billy LeBouef,Orange Little Cypress-Mauriceville,71.67,72.57,70.31,86.18,,Single-ply,SBD,M
Boys,74.84,DQ,Clayton Westbrook,Orangefield,68.49,124.74,90.72,127.01,,Single-ply,SBD,M
Boys,74.84,DQ,Grant Metts,Orangefield,72.57,108.86,68.04,122.47,,Single-ply,SBD,M
Boys,74.84,DQ,Cody Labry,Orangefield,71.21,151.95,90.72,142.88,,Single-ply,SBD,M
Boys,74.84,DQ,Jacob Harvey,Orangefield,71.67,163.29,99.79,145.15,,Single-ply,SBD,M
Boys,74.84,DQ,Walker Cravey,Silsbee,73.94,124.74,70.31,167.83,,Single-ply,SBD,M
Boys,74.84,DQ,Clint Williams,West Orange-Stark,73.94,133.81,83.91,163.29,,Single-ply,SBD,M
Boys,74.84,DQ,Joseph Goats,Orange Little Cypress-Mauriceville,68.49,,,,,Single-ply,SBD,M
Boys,82.1,1,Ethan McKay,Orange Little Cypress-Mauriceville,78.93,206.38,129.27,206.38,542.04,Single-ply,SBD,M
Boys,82.1,2,Lonnie Foster,Silsbee,81.65,210.92,102.06,210.92,523.9,Single-ply,SBD,M
Boys,82.1,3,Jerrick Spencer,West Orange-Stark,78.02,149.69,133.81,199.58,483.08,Single-ply,SBD,M
Boys,82.1,4,Shawn McKay,Orange Little Cypress-Mauriceville,82.1,183.7,92.99,183.7,460.4,Single-ply,SBD,M
Boys,82.1,5,Cameron Wedgeworth,Orangefield,78.47,131.54,86.18,136.08,353.8,Single-ply,SBD,M
Boys,82.1,DQ,Daniel Durbin,Orangefield,78.93,92.99,74.84,136.08,,Single-ply,SBD,M
Boys,82.1,DQ,Kaiden Berry,West Orange-Stark,77.56,92.99,61.23,104.33,,Single-ply,SBD,M
Boys,89.81,1,Trent Brown,Orange Little Cypress-Mauriceville,89.81,183.7,136.08,206.38,526.17,Single-ply,SBD,M
Boys,89.81,2,Trip Leger,Orangefield,87.09,170.1,111.13,163.29,444.52,Single-ply,SBD,M
Boys,89.81,3,Joseph Cotton,West Orange-Stark,84.82,145.15,102.06,183.7,430.91,Single-ply,SBD,M
Boys,89.81,4,Steven Wilderson,West Orange-Stark,86.18,142.88,104.33,176.9,424.11,Single-ply,SBD,M
Boys,89.81,5,Keenon Dolen,Silsbee,85.28,145.15,99.79,165.56,410.5,Single-ply,SBD,M
Boys,89.81,DQ,Lande Butler,West Orange-Stark,85.73,142.88,86.18,138.35,,Single-ply,SBD,M
Boys,89.81,DQ,Trent Wilkerson,Orange Little Cypress-Mauriceville,89.81,92.99,61.23,136.08,,Single-ply,SBD,M
Boys,89.81,DQ,Jonathan English,Orange Little Cypress-Mauriceville,87.54,,,,,Single-ply,SBD,M
Boys,99.79,1,Colt LeBleu,Orange Little Cypress-Mauriceville,92.99,226.8,151.95,238.14,616.89,Single-ply,SBD,M
Boys,99.79,2,Dylan Andrews,Silsbee,95.71,204.12,108.86,199.58,512.56,Single-ply,SBD,M
Boys,99.79,3,Dawson Stephens,Silsbee,93.89,149.69,106.59,165.56,421.84,Single-ply,SBD,M
Boys,99.79,4,Ryan Davila,Orange Little Cypress-Mauriceville,99.79,113.4,77.11,147.42,337.93,Single-ply,SBD,M
Boys,99.79,DQ,Dustin Parker,Orange Little Cypress-Mauriceville,94.35,61.23,61.23,86.18,,Single-ply,SBD,M
Boys,99.79,DQ,Aiden Chustz,Silsbee,90.72,99.79,74.84,124.74,,Single-ply,SBD,M
Boys,99.79,DQ,Joseph Stanley,Silsbee,99.79,124.74,77.11,120.2,,Single-ply,SBD,M
Boys,99.79,DQ,Floyd Mouton,West Orange-Stark,94.8,,,,,Single-ply,SBD,M
Boys,99.79,DQ,Keontae Strother,West Orange-Stark,90.72,,,,,Single-ply,SBD,M
Boys,99.79,DQ,Logan Tomas,Silsbee,94.8,,,,,Single-ply,SBD,M
Boys,109.77,1,Daniel Grant,Silsbee,109.77,210.92,142.88,219.99,573.79,Single-ply,SBD,M
Boys,109.77,2,Cody Duncan,Silsbee,107.95,208.65,108.86,190.51,508.02,Single-ply,SBD,M
Boys,109.77,3,Darby Jones,West Orange-Stark,105.23,179.17,124.74,192.78,496.68,Single-ply,SBD,M
Boys,109.77,4,Malik Griffin,Orange Little Cypress-Mauriceville,105.23,170.1,138.35,167.83,476.27,Single-ply,SBD,M
Boys,109.77,5,Lucas Russell,Orange Little Cypress-Mauriceville,101.15,185.97,97.52,185.97,469.47,Single-ply,SBD,M
Boys,109.77,6,Ayden Bell,Silsbee,104.33,172.37,92.99,174.63,439.98,Single-ply,SBD,M
Boys,109.77,7,Xander Steele,Orangefield,101.15,174.63,97.52,156.49,428.64,Single-ply,SBD,M
Boys,109.77,8,Brendon Roberts,Orangefield,101.15,136.08,102.06,145.15,383.29,Single-ply,SBD,M
Boys,124.74,1,Marquell Hale,Silsbee,112.04,281.23,142.88,244.94,669.05,Single-ply,SBD,M
Boys,124.74,2,Grant LaCour,Orange Little Cypress-Mauriceville,119.29,260.82,145.15,256.28,662.24,Single-ply,SBD,M
Boys,124.74,3,Samuel Roundtree,Silsbee,119.75,199.58,122.47,181.44,503.49,Single-ply,SBD,M
Boys,124.74,4,Bobby Rash,West Orange-Stark,112.49,170.1,117.93,188.24,476.27,Single-ply,SBD,M
Boys,124.74,5,Quincy Ledet,West Orange-Stark,115.67,181.44,102.06,190.51,474,Single-ply,SBD,M
Boys,124.74,6,Ja'Corry Brady,West Orange-Stark,120.2,176.9,113.4,165.56,455.86,Single-ply,SBD,M
Boys,124.74,7,Blake Ferguson,Orange Little Cypress-Mauriceville,124.74,185.97,104.33,145.15,435.45,Single-ply,SBD,M
Boys,124.74,DQ,Landon Lucia,West Orange-Stark,121.56,129.27,70.31,138.35,,Single-ply,SBD,M
Boys,124.74,DQ,Fred Rash,West Orange-Stark,112.04,111.13,72.57,120.2,,Single-ply,SBD,M
Boys,124.74+,1,Jordan Garrett,West Orange-Stark,127.01,174.63,127.01,201.85,503.49,Single-ply,SBD,M
Boys,124.74+,DQ,Lawrence Williams,Silsbee,145.15,176.9,117.93,183.7,,Single-ply,SBD,M
Boys,124.74+,DQ,Aaron Galitz,Orangefield,154.22,,,,,Single-ply,SBD,M
