Division,WeightClassKg,Place,Name,Team,BodyweightKg,Best3SquatKg,Best3BenchKg,Best3DeadliftKg,TotalKg,Equipment,Event,Sex,BirthDate
Girls,44.23,1,Lexi Iglesias,Port Lavaca Calhoun,43.45,106.59,63.5,120.2,290.3,Single-ply,SBD,F,
Girls,44.23,2,Leanne Le,Alvin Shadow Creek,42.91,92.99,43.09,115.67,251.74,Single-ply,SBD,F,
Girls,44.23,3,Isabella Gonzales,Pearland,44.09,86.18,31.75,83.91,201.85,Single-ply,SBD,F,
Girls,44.23,4,Mychael Broussard,Alvin Shadow Creek,39.01,54.43,31.75,70.31,156.49,Single-ply,SBD,F,
Girls,47.85,1,Amanda Barrera,Alvin,46.45,108.86,47.63,122.47,278.96,Single-ply,SBD,F,
Girls,47.85,2,Andrea Recendez,Alvin,47.4,99.79,54.43,113.4,267.62,Single-ply,SBD,F,
Girls,47.85,3,Tara Lesley,Pearland Dawson,47.08,63.5,31.75,70.31,165.56,Single-ply,SBD,F,
Girls,47.85,4,Jessica Hill #3,Manvel,44.63,61.23,34.02,68.04,163.29,Single-ply,SBD,F,
Girls,47.85,5,Evelyn Duke,Pearland Dawson,47.72,52.16,22.68,52.16,127.01,Single-ply,SBD,F,
Girls,51.94,1,Raelin Luna,Port Lavaca Calhoun,51.8,124.74,68.04,127.01,319.78,Single-ply,SBD,F,
Girls,51.94,2,Crystal Phan,Dickinson,50.8,117.93,56.7,122.47,297.1,Single-ply,SBD,F,
Girls,51.94,3,Gracie Cervantes,Santa Fe,50.26,97.52,49.9,95.25,242.67,Single-ply,SBD,F,
Girls,51.94,4,Keira Rodriguez,Santa Fe,50.62,88.45,47.63,95.25,231.33,Single-ply,SBD,F,
Girls,51.94,5,Rylee Slaughter,Santa Fe,51.53,88.45,43.09,97.52,229.06,Single-ply,SBD,F,
Girls,51.94,6,Isabela Recendez,Alvin,50.53,88.45,45.36,79.38,213.19,Single-ply,SBD,F,
Girls,51.94,7,Stephanie Colmenares,Alvin,50.89,74.84,40.82,88.45,204.12,Single-ply,SBD,F,
Girls,51.94,8,Katalina Arriolla,Pearland,51.71,63.5,24.95,65.77,154.22,Single-ply,SBD,F,
Girls,51.94,9,Madison Cary,Pearland Dawson,49.62,36.29,24.95,54.43,115.67,Single-ply,SBD,F,
Girls,56.02,1,Eh Nay Gay Hso,Port Lavaca Calhoun,55.52,167.83,65.77,136.08,369.68,Single-ply,SBD,F,
Girls,56.02,2,Cameron Bloomfield,Santa Fe,55.43,136.08,58.97,122.47,317.51,Single-ply,SBD,F,
Girls,56.02,3,Araceli Dale,Alvin,55.43,117.93,58.97,122.47,299.37,Single-ply,SBD,F,
Girls,56.02,4,Aaliyah Reyes,Manvel,55.16,133.81,43.09,120.2,297.1,Single-ply,SBD,F,
Girls,56.02,5,Chinyere Okonkwo,Alvin Shadow Creek,55.25,90.72,52.16,120.2,263.08,Single-ply,SBD,F,
Girls,56.02,6,Rosie Orta,Port Lavaca Calhoun,55.61,102.06,54.43,102.06,258.55,Single-ply,SBD,F,
Girls,56.02,7,Karli Kalischko,Alvin,54.61,95.25,52.16,102.06,249.48,Single-ply,SBD,F,
Girls,56.02,8,Stephanie Lopez,Pearland,55.25,81.65,38.56,102.06,222.26,Single-ply,SBD,F,
Girls,56.02,9,Jaycie Rabon,Santa Fe,54.52,81.65,43.09,95.25,219.99,Single-ply,SBD,F,
Girls,56.02,10,Lilian Hurks,Pearland,54.7,81.65,34.02,86.18,201.85,Single-ply,SBD,F,
Girls,56.02,11,Nova Tull,Santa Fe,55.7,70.31,31.75,90.72,192.78,Single-ply,SBD,F,
Girls,60.1,1,Nancy Meza,Alvin,59.6,167.83,65.77,149.69,383.29,Single-ply,SBD,F,
Girls,60.1,2,Selena Goodman,Manvel,58.6,129.27,61.23,136.08,326.59,Single-ply,SBD,F,
Girls,60.1,3,Dominique de la Rosa,Alvin,58.6,113.4,65.77,117.93,297.1,Single-ply,SBD,F,
Girls,60.1,4,Hannah Casas,Alvin,58.33,127.01,56.7,111.13,294.84,Single-ply,SBD,F,
Girls,60.1,5,Karina Recendez,Alvin,57.15,120.2,52.16,117.93,290.3,Single-ply,SBD,F,
Girls,60.1,6,Emily Rubio,Dickinson,59.87,117.93,47.63,111.13,276.69,Single-ply,SBD,F,
Girls,60.1,7,Kennedi Cunningham,Manvel,57.42,81.65,52.16,124.74,258.55,Single-ply,SBD,F,
Girls,60.1,8,Mckenna Mcguire,Santa Fe,60.1,104.33,47.63,104.33,256.28,Single-ply,SBD,F,
Girls,60.1,9,Kennedi Herrington,Pearland,57.15,83.91,38.56,83.91,206.38,Single-ply,SBD,F,
Girls,60.1,10,Jacie Melancon,Santa Fe,59.51,81.65,36.29,88.45,206.38,Single-ply,SBD,F,
Girls,60.1,11,Halie Redetzki,Pearland Dawson,56.97,52.16,36.29,54.43,142.88,Single-ply,SBD,F,
Girls,67.36,1,Amaya Batiste,Manvel,65.95,108.86,68.04,136.08,312.98,Single-ply,SBD,F,
Girls,67.36,2,Camila Recendez,Alvin,61.87,138.35,40.82,129.27,308.44,Single-ply,SBD,F,
Girls,67.36,3,Madison Stringo,Port Lavaca Calhoun,65.23,111.13,52.16,111.13,274.42,Single-ply,SBD,F,
Girls,67.36,4,Morgan Singleton,Pearland,66.59,90.72,45.36,106.59,242.67,Single-ply,SBD,F,
Girls,67.36,5,Jennifer Perez-Galindo,Alvin Shadow Creek,65.77,74.84,34.02,79.38,188.24,Single-ply,SBD,F,
Girls,67.36,6,Sofia Garcia,Dickinson,61.6,77.11,27.22,79.38,183.7,Single-ply,SBD,F,
Girls,67.36,7,Yarani Machado,Pearland Dawson,61.51,68.04,29.48,81.65,179.17,Single-ply,SBD,F,
Girls,67.36,8,Breanna Fuselier,Dickinson,66.95,52.16,31.75,83.91,167.83,Single-ply,SBD,F,
Girls,67.36,DQ,Karissa Betancourt,Santa Fe,66.95,111.13,56.7,,,Single-ply,SBD,F,
Girls,67.36,DQ,Angel Grace,Alvin Shadow Creek,62.51,83.91,,86.18,,Single-ply,SBD,F,
Girls,75.07,1,Karina Macias,Alvin,74.84,197.31,65.77,174.63,437.72,Single-ply,SBD,F,
Girls,75.07,2,Briana Abrego,Port Lavaca Calhoun,68.67,124.74,65.77,147.42,337.93,Single-ply,SBD,F,
Girls,75.07,3,Cheyenne Brumlow,Port Lavaca Calhoun,74.84,136.08,70.31,122.47,328.85,Single-ply,SBD,F,
Girls,75.07,4,Samantha Donaldson,Pearland,67.68,129.27,68.04,122.47,319.78,Single-ply,SBD,F,
Girls,75.07,5,Krissy Prier,Pearland Dawson,72.39,124.74,58.97,131.54,315.25,Single-ply,SBD,F,
Girls,75.07,6,Raeann Hernandez,Alvin,73.94,115.67,54.43,140.61,310.71,Single-ply,SBD,F,
Girls,75.07,7,Brittnee Kramer,Danbury,69.67,102.06,65.77,122.47,290.3,Single-ply,SBD,F,
Girls,75.07,8,Paris Rodriguez,Texas City,74.12,111.13,45.36,108.86,265.35,Single-ply,SBD,F,
Girls,75.07,9,Alex Cravey,Santa Fe,69.31,113.4,49.9,99.79,263.08,Single-ply,SBD,F,
Girls,75.07,10,Keyona Kitchens,Dickinson,73.03,97.52,47.63,106.59,251.74,Single-ply,SBD,F,
Girls,75.07,11,Bailee Sobnosky,Santa Fe,73.39,99.79,45.36,106.59,251.74,Single-ply,SBD,F,
Girls,75.07,12,Madyson Bennett,Danbury,69.94,90.72,56.7,95.25,242.67,Single-ply,SBD,F,
Girls,75.07,13,Jaylee Jennings,Alvin Shadow Creek,68.04,90.72,27.22,115.67,233.6,Single-ply,SBD,F,
Girls,75.07,14,Angelina Ochoa,Alvin,68.49,83.91,45.36,97.52,226.8,Single-ply,SBD,F,
Girls,75.07,15,Christabel Bass,Alvin,72.94,95.25,40.82,88.45,224.53,Single-ply,SBD,F,
Girls,75.07,16,Amelia Coutorie,Pearland Dawson,73.57,74.84,31.75,83.91,190.51,Single-ply,SBD,F,
Girls,82.33,1,Vivian Galindo,Port Lavaca Calhoun,77.02,156.49,72.57,142.88,371.95,Single-ply,SBD,F,
Girls,82.33,2,Haley Bingham,Dickinson,77.84,111.13,52.16,117.93,281.23,Single-ply,SBD,F,
Girls,82.33,3,Vivian Nguyen,Pearland,78.56,83.91,54.43,136.08,274.42,Single-ply,SBD,F,
Girls,82.33,4,Cassidy Casey,Pearland Dawson,82.19,113.4,49.9,108.86,272.16,Single-ply,SBD,F,
Girls,82.33,5,Kimberly Benda,Alvin,78.56,104.33,40.82,115.67,260.82,Single-ply,SBD,F,
Girls,82.33,6,Marcela Trad,Alvin Shadow Creek,79.11,92.99,43.09,102.06,238.14,Single-ply,SBD,F,
Girls,82.33,7,Brianna Rodriquez,Dickinson,79.74,90.72,43.09,99.79,233.6,Single-ply,SBD,F,
Girls,82.33,8,Melissa Hernandez,Alvin Shadow Creek,76.93,77.11,38.56,97.52,213.19,Single-ply,SBD,F,
Girls,82.33,9,Emmi Pruitt,Danbury,80.2,81.65,43.09,77.11,201.85,Single-ply,SBD,F,
Girls,90.04,1,Noelia Rodas,Port Lavaca Calhoun,83.37,154.22,72.57,149.69,376.48,Single-ply,SBD,F,
Girls,90.04,2,Stevie Goodman,Alvin,83.46,133.81,61.23,142.88,337.93,Single-ply,SBD,F,
Girls,90.04,3,Elizabeth Hidalgo,Alvin,84.37,111.13,52.16,129.27,292.57,Single-ply,SBD,F,
Girls,90.04,4,Gabby Magenheim,Pearland Dawson,82.55,106.59,56.7,117.93,281.23,Single-ply,SBD,F,
Girls,90.04,5,Kamile Farrakhan,Pearland Dawson,86.64,74.84,36.29,104.33,215.46,Single-ply,SBD,F,
Girls,90.04,DQ,Trinity Lee,Pearland,83.91,,,,,Single-ply,SBD,F,
Girls,100.02,1,Sarah Green,Alvin,90.54,140.61,65.77,117.93,324.32,Single-ply,SBD,F,
Girls,100.02,2,Jennifer De Leon #2,Alvin,92.8,113.4,45.36,106.59,265.35,Single-ply,SBD,F,
Girls,100.02,3,Kylie Allbritton,Pearland,99.25,138.35,54.43,136.08,328.85,Single-ply,SBD,F,
Girls,100.02,4,Katelyn Hayes,Pearland Dawson,99.79,102.06,56.7,120.2,278.96,Single-ply,SBD,F,
Girls,100.02,5,Sadie Meeks,Danbury,96.52,81.65,49.9,136.08,267.62,Single-ply,SBD,F,
Girls,100.02,6,Demari Cole,Pearland Dawson,90.54,72.57,38.56,81.65,192.78,Single-ply,SBD,F,
Girls,100.02,DQ,Emma Quintanilla,Danbury,92.08,74.84,,,,Single-ply,SBD,F,
Girls,117.71,1,Trinity Ruiz,Alvin,104.78,192.78,90.72,147.42,430.91,Single-ply,SBD,F,
Girls,117.71,2,Dariah Jennings,Alvin Shadow Creek,116.21,151.95,65.77,161.03,378.75,Single-ply,SBD,F,
Girls,117.71,3,Angelina Calzada,Port Lavaca Calhoun,105.6,133.81,74.84,158.76,367.41,Single-ply,SBD,F,
Girls,117.71,4,Eliana Hernandez,Alvin,108.95,120.2,65.77,156.49,342.46,Single-ply,SBD,F,
Girls,117.71+,1,Alayna Searcy,Port Lavaca Calhoun,127.46,215.46,108.86,156.49,480.81,Single-ply,SBD,F,
Girls,117.71+,2,Belen Almader,Alvin,131.81,215.46,90.72,151.95,458.13,Single-ply,SBD,F,
Girls,117.71+,3,Laci Ruiz,Alvin,131.09,133.81,52.16,129.27,315.25,Single-ply,SBD,F,
Girls,117.71+,4,Deaisha Boone,Dickinson,124.74,108.86,54.43,104.33,267.62,Single-ply,SBD,F,
