Division,WeightClassKg,Place,Name,Team,BodyweightKg,Best3SquatKg,Best3BenchKg,Best3DeadliftKg,TotalKg,Equipment,Event,Sex,BirthDate
Boys,51.71,1,Aj Sneed,Richardson Lake Highlands,51.71,131.54,74.84,138.35,344.73,Single-ply,SBD,M,
Boys,55.79,1,Devonte Watson,Richardson Lake Highlands,55.79,104.33,61.23,133.81,299.37,Single-ply,SBD,M,
Boys,55.79,2,Luele Daniel,Richardson Pearce,55.79,92.99,47.63,90.72,231.33,Single-ply,SBD,M,
Boys,55.79,3,Mason Sall,Richardson Berkner,54.43,74.84,47.63,102.06,224.53,Single-ply,SBD,M,
Boys,59.87,DQ,Torionte Franklin,Richardson,59.87,,,,,Single-ply,SBD,M,
Boys,67.13,1,Victor Acosta,Richardson Berkner,67.13,90.72,61.23,129.27,281.23,Single-ply,SBD,M,
Boys,67.13,2,Jacob Rayburn,Richardson Berkner,65.32,74.84,45.36,117.93,238.14,Single-ply,SBD,M,
Boys,67.13,3,Jaquest Williams,Richardson Pearce,61.23,90.72,49.9,95.25,235.87,Single-ply,SBD,M,
Boys,74.84,1,Jackson Mize,Richardson Pearce,74.84,158.76,102.06,174.63,435.45,Single-ply,SBD,M,
Boys,74.84,2,Kevin Velasco,Richardson,74.84,151.95,70.31,174.63,396.89,Single-ply,SBD,M,
Boys,74.84,3,Josiah Ingram,Richardson,68.49,127.01,102.06,161.03,390.09,Single-ply,SBD,M,
Boys,74.84,DQ,Ryan Lucas,Richardson Lake Highlands,74.39,154.22,,151.95,,Single-ply,SBD,M,
Boys,82.1,1,Ezekiel Johnson,Richardson Berkner,75.3,181.44,117.93,206.38,505.76,Single-ply,SBD,M,
Boys,82.1,2,Kam Lewis,Richardson,76.66,167.83,108.86,167.83,444.52,Single-ply,SBD,M,
Boys,82.1,3,Peter Nettleton,Dallas Highland Park,80.29,158.76,99.79,165.56,424.11,Single-ply,SBD,M,
Boys,82.1,4,Madisen Gattis,Richardson,80.74,156.49,97.52,161.03,415.04,Single-ply,SBD,M,
Boys,82.1,5,Mason Jones,Dallas Highland Park,76.66,147.42,92.99,158.76,399.16,Single-ply,SBD,M,
Boys,82.1,6,Isaac Martinez,Richardson Pearce,77.11,129.27,90.72,145.15,365.14,Single-ply,SBD,M,
Boys,82.1,7,Michael Jordan,Richardson Berkner,81.65,92.99,65.77,106.59,265.35,Single-ply,SBD,M,
Boys,89.81,1,Mitch Coulson,Richardson Lake Highlands,88,213.19,95.25,204.12,512.56,Single-ply,SBD,M,
Boys,89.81,2,Jymmy Acosta,Richardson Pearce,89.81,183.7,102.06,204.12,489.88,Single-ply,SBD,M,
Boys,89.81,3,Alex Weiss,Richardson Pearce,84.37,181.44,92.99,170.1,444.52,Single-ply,SBD,M,
Boys,89.81,4,Will Hutton,Richardson Lake Highlands,84.37,165.56,102.06,170.1,437.72,Single-ply,SBD,M,
Boys,89.81,5,Hunter Feinman,Richardson Pearce,86.64,163.29,99.79,165.56,428.64,Single-ply,SBD,M,
Boys,89.81,6,Marcellus Dennis,Richardson,86.64,138.35,74.84,165.56,378.75,Single-ply,SBD,M,
Boys,89.81,7,Spencer Bell,Dallas Highland Park,83.91,136.08,83.91,136.08,356.07,Single-ply,SBD,M,
Boys,99.79,1,Ryan Olds,Dallas Highland Park,99.79,199.58,124.74,217.72,542.04,Single-ply,SBD,M,
Boys,99.79,2,Rodolfo Ramirez,Richardson Pearce,98.88,210.92,111.13,208.65,530.7,Single-ply,SBD,M,
Boys,99.79,3,Chance Price,Richardson Pearce,92.08,215.46,111.13,197.31,523.9,Single-ply,SBD,M,
Boys,99.79,4,Tomaso Brown,Richardson,93.44,170.1,129.27,204.12,503.49,Single-ply,SBD,M,
Boys,99.79,5,Andy Jordan,Richardson Lake Highlands,97.98,181.44,124.74,197.31,503.49,Single-ply,SBD,M,
Boys,99.79,6,Noah Smith,Dallas Highland Park,98.43,188.24,104.33,190.51,483.08,Single-ply,SBD,M,
Boys,99.79,7,Jack Curtis,Dallas Highland Park,93.89,183.7,104.33,183.7,471.74,Single-ply,SBD,M,
Boys,99.79,8,Luke Fairbanks,Richardson Lake Highlands,92.08,176.9,92.99,192.78,462.66,Single-ply,SBD,M,
Boys,99.79,9,Judah Allred,Richardson,94.35,183.7,88.45,136.08,408.23,Single-ply,SBD,M,
Boys,99.79,10,Jake Watts,Dallas Highland Park,96.62,147.42,70.31,147.42,365.14,Single-ply,SBD,M,
Boys,99.79,11,Jay-Anthony Brown,Richardson Berkner,99.34,113.4,70.31,136.08,319.78,Single-ply,SBD,M,
Boys,99.79,12,Sergio Cano,Richardson Berkner,95.25,83.91,45.36,102.06,231.33,Single-ply,SBD,M,
Boys,99.79,DQ,Maddox Martinez,Richardson Berkner,91.17,102.06,,140.61,,Single-ply,SBD,M,
Boys,109.77,1,Josh Horlick,Richardson Pearce,108.41,229.06,138.35,197.31,564.72,Single-ply,SBD,M,
Boys,109.77,2,Kaleb White,Richardson,106.14,206.38,111.13,222.26,539.77,Single-ply,SBD,M,
Boys,109.77,3,Jackson Versfelt,Richardson Lake Highlands,107.5,206.38,113.4,213.19,532.97,Single-ply,SBD,M,
Boys,109.77,4,Ethan Schwartz,Dallas Highland Park,105.23,188.24,106.59,158.76,453.59,Single-ply,SBD,M,
Boys,109.77,5,Testimony Lucas,Richardson,106.14,129.27,79.38,174.63,383.29,Single-ply,SBD,M,
Boys,109.77,6,Derek Innman,Dallas Highland Park,103.42,142.88,90.72,145.15,378.75,Single-ply,SBD,M,
Boys,109.77,7,Precisely Ohiagu,Richardson Berkner,100.24,129.27,92.99,111.13,333.39,Single-ply,SBD,M,
Boys,124.74,1,Sam Morse,Dallas Highland Park,115.67,231.33,140.61,185.97,557.92,Single-ply,SBD,M,
Boys,124.74,2,Cam Reeves,Richardson,117.48,197.31,129.27,183.7,510.29,Single-ply,SBD,M,
Boys,124.74,3,Jc Johnson,Richardson Lake Highlands,123.38,201.85,97.52,183.7,483.08,Single-ply,SBD,M,
Boys,124.74,4,Will Johnson,Richardson Lake Highlands,113.4,183.7,102.06,192.78,478.54,Single-ply,SBD,M,
Boys,124.74,5,Alejandro Carrillo,Richardson Berkner,117.03,142.88,70.31,142.88,356.07,Single-ply,SBD,M,
Boys,124.74,DQ,Henry Hagenbuch,Dallas Highland Park,120.2,190.51,111.13,,,Single-ply,SBD,M,
Boys,124.74+,1,Sam Odelami,Richardson Lake Highlands,125.19,174.63,102.06,210.92,487.61,Single-ply,SBD,M,
Boys,124.74+,2,Canyon Wadsworth,Richardson Pearce,128.82,142.88,111.13,183.7,437.72,Single-ply,SBD,M,
Boys,124.74+,3,Sam Conyers,Richardson Berkner,153.31,102.06,70.31,151.95,324.32,Single-ply,SBD,M,
