Division,WeightClassKg,Place,Name,Team,BodyweightKg,Best3SquatKg,Best3BenchKg,Best3DeadliftKg,TotalKg,Equipment,Event,Sex,BirthDate
Boys,51.71,1,Shane Schilder,Shelbyville,51.62,117.93,65.77,136.08,319.78,Single-ply,SBD,M,
Boys,55.79,1,Ricky Regalado,Warren,55.7,111.13,104.33,142.88,358.34,Single-ply,SBD,M,
Boys,55.79,2,Henry Suggs,Frankston,55.61,127.01,65.77,129.27,322.05,Single-ply,SBD,M,
Boys,55.79,3,Kaleb Gage,Grapeland,55.34,127.01,56.7,113.4,297.1,Single-ply,SBD,M,
Boys,55.79,4,Alfonso Davis,Elkhart,52.53,108.86,52.16,106.59,267.62,Single-ply,SBD,M,
Boys,55.79,DQ,Quentin Taylor,Troup,53.98,,,,,Single-ply,SBD,M,
Boys,59.87,1,Isaiah Hardison,Joaquin,56.79,120.2,65.77,115.67,301.64,Single-ply,SBD,M,
Boys,67.13,1,Tyler Hunt,Palestine,63.32,154.22,124.74,158.76,437.72,Single-ply,SBD,M,
Boys,67.13,2,Kaden Mahoney,Troup,64.14,176.9,95.25,147.42,419.57,Single-ply,SBD,M,
Boys,67.13,3,Logan Tressler,Warren,67.13,151.95,86.18,149.69,387.82,Single-ply,SBD,M,
Boys,67.13,4,Kemon Ross,Palestine,60.06,145.15,77.11,149.69,371.95,Single-ply,SBD,M,
Boys,67.13,5,Landon Thomas,Elkhart,61.23,147.42,68.04,136.08,351.53,Single-ply,SBD,M,
Boys,67.13,6,Avery Starr,Elkhart,61.78,147.42,68.04,129.27,344.73,Single-ply,SBD,M,
Boys,67.13,7,Scott Jones,Warren,61.78,120.2,79.38,140.61,340.19,Single-ply,SBD,M,
Boys,67.13,8,Oscar Najera,Elkhart,63.68,108.86,56.7,133.81,299.37,Single-ply,SBD,M,
Boys,67.13,9,Austin Miller,Troup,65.41,115.67,65.77,117.93,299.37,Single-ply,SBD,M,
Boys,67.13,10,Cody Carpenter,Elkhart,67.04,97.52,54.43,88.45,240.4,Single-ply,SBD,M,
Boys,74.84,1,Caleb Ridgeway,Shelbyville,71.21,201.85,92.99,192.78,487.61,Single-ply,SBD,M,
Boys,74.84,2,John Ford,Troup,73.3,181.44,97.52,161.03,439.98,Single-ply,SBD,M,
Boys,74.84,3,Tony Salano,Warren,67.59,161.03,88.45,183.7,433.18,Single-ply,SBD,M,
Boys,74.84,4,David Hall,Troup,73.57,163.29,97.52,167.83,428.64,Single-ply,SBD,M,
Boys,74.84,5,Trayson Wright,Overton,69.31,183.7,90.72,151.95,426.38,Single-ply,SBD,M,
Boys,74.84,6,Dorian Jones,Warren,73.39,145.15,92.99,176.9,415.04,Single-ply,SBD,M,
Boys,74.84,7,Max Lara,Elkhart,72.3,172.37,77.11,154.22,403.7,Single-ply,SBD,M,
Boys,74.84,8,Anthony Salgado,Troup,72.39,147.42,88.45,165.56,401.43,Single-ply,SBD,M,
Boys,74.84,9,Jesse Calley,Troup,68.67,158.76,79.38,154.22,392.36,Single-ply,SBD,M,
Boys,74.84,10,Jeremiah Ramirez,Troup,73.84,147.42,90.72,140.61,378.75,Single-ply,SBD,M,
Boys,74.84,11,Zander Slack,Overton,71.3,142.88,74.84,151.95,369.68,Single-ply,SBD,M,
Boys,74.84,12,Isiah Brown,Palestine,69.76,127.01,81.65,154.22,362.87,Single-ply,SBD,M,
Boys,74.84,13,Andre Sailese,Tatum,73.03,127.01,92.99,138.35,358.34,Single-ply,SBD,M,
Boys,82.1,1,Kelan Lloyd,Tatum,81.28,204.12,117.93,183.7,505.76,Single-ply,SBD,M,
Boys,82.1,2,Jesus Bravo,Joaquin,76.29,188.24,111.13,197.31,496.68,Single-ply,SBD,M,
Boys,82.1,3,Keshawn Nonnette,Palestine,82.1,163.29,124.74,188.24,476.27,Single-ply,SBD,M,
Boys,82.1,4,Zach Clark,Shelbyville,77.29,190.51,99.79,174.63,464.93,Single-ply,SBD,M,
Boys,82.1,5,Grady Clay,Shelbyville,79.47,181.44,77.11,176.9,435.45,Single-ply,SBD,M,
Boys,82.1,6,Grant Foster,Frankston,79.65,161.03,113.4,156.49,430.91,Single-ply,SBD,M,
Boys,82.1,7,Landon Bailey,Frankston,82.1,167.83,97.52,154.22,419.57,Single-ply,SBD,M,
Boys,82.1,8,Arthur Perry,Tatum,81.19,147.42,88.45,158.76,394.63,Single-ply,SBD,M,
Boys,82.1,9,Nahum Rivera,Joaquin,79.83,145.15,92.99,149.69,387.82,Single-ply,SBD,M,
Boys,82.1,10,Felipe Campanzano,Tatum,76.84,122.47,63.5,136.08,322.05,Single-ply,SBD,M,
Boys,82.1,11,Dacota Walker,Elkhart,79.83,138.35,,,138.35,Single-ply,S,M,
Boys,82.1,12,William Emmel,Overton,77.29,120.2,,,120.2,Single-ply,S,M,
Boys,82.1,DQ,Jared Cook,Frankston,79.29,,,,,Single-ply,SBD,M,
Boys,89.81,1,Sean Rogers,Rusk,84.01,179.17,108.86,201.85,489.88,Single-ply,SBD,M,
Boys,89.81,2,William Pelt,Warren,87.36,192.78,102.06,192.78,487.61,Single-ply,SBD,M,
Boys,89.81,3,Dawson Windham,Shelbyville,82.55,181.44,102.06,188.24,471.74,Single-ply,SBD,M,
Boys,89.81,4,Julian Cummings,Palestine,87,170.1,90.72,192.78,453.59,Single-ply,SBD,M,
Boys,89.81,5,Hagen Crumpton,Shelbyville,83.91,174.63,102.06,174.63,451.32,Single-ply,SBD,M,
Boys,89.81,6,Tyler Fridinger,Frankston,84.91,156.49,92.99,183.7,433.18,Single-ply,SBD,M,
Boys,89.81,7,Eden Mayhall,Palestine,86.36,154.22,97.52,165.56,417.3,Single-ply,SBD,M,
Boys,89.81,8,Jaxon Riley,Tatum,82.64,138.35,,,138.35,Single-ply,S,M,
Boys,99.79,1,Jeremiah Lawson,Tatum,94.17,210.92,108.86,188.24,508.02,Single-ply,SBD,M,
Boys,99.79,2,Riley O'Quinn,Tatum,92.53,174.63,106.59,181.44,462.66,Single-ply,SBD,M,
Boys,99.79,3,Juan Perez,Frankston,94.8,226.8,,,226.8,Single-ply,S,M,
Boys,99.79,DQ,Cameron Spurlock,Palestine,90.45,,,,,Single-ply,SBD,M,
Boys,109.77,1,Nick Acker,Rusk,103.42,251.74,136.08,219.99,607.81,Single-ply,SBD,M,
Boys,109.77,2,Cj Hicks,Palestine,104.78,226.8,149.69,231.33,607.81,Single-ply,SBD,M,
Boys,109.77,3,Lane Gilchrest,Rusk,104.05,190.51,99.79,195.04,485.34,Single-ply,SBD,M,
Boys,109.77,4,D'Artagnan Gomez,Overton,102.87,117.93,72.57,145.15,335.66,Single-ply,SBD,M,
Boys,124.74,1,Rylan Reynolds,Rusk,124.19,204.12,111.13,215.46,530.7,Single-ply,SBD,M,
Boys,124.74,2,Augustin Jaimes,Troup,117.84,219.99,102.06,183.7,505.76,Single-ply,SBD,M,
Boys,124.74,3,Dawson Jackson,Shelbyville,124.65,163.29,83.91,129.27,376.48,Single-ply,SBD,M,
Boys,124.74,4,Bradley Pierece,Overton,115.48,201.85,86.18,,288.03,Single-ply,SB,M,
Boys,124.74+,1,Jamyran Black,Palestine,129.91,256.28,136.08,215.46,607.81,Single-ply,SBD,M,
Boys,124.74+,2,Cj Fite,Tatum,129.27,226.8,122.47,217.72,566.99,Single-ply,SBD,M,
Boys,124.74+,3,Jason Lazaro,Overton,131.72,219.99,124.74,201.85,546.58,Single-ply,SBD,M,
Boys,124.74+,4,Chris Stuff,Palestine,134.35,226.8,108.86,170.1,505.76,Single-ply,SBD,M,
Boys,124.74+,5,Treven White,Overton,127.55,183.7,97.52,174.63,455.86,Single-ply,SBD,M,
Boys,124.74+,6,Jeremiah Moffitt,Palestine,162.39,145.15,74.84,163.29,383.29,Single-ply,SBD,M,
Boys,124.74+,DQ,Joshua Odinka,Palestine,125.83,,,,,Single-ply,SBD,M,
Boys,124.74+,DQ,Jason DeCluette,Grapeland,134.81,,,,,Single-ply,SBD,M,
