Division,WeightClassKg,Place,Name,Team,BodyweightKg,Best3SquatKg,Best3BenchKg,Best3DeadliftKg,TotalKg,Equipment,Event,Sex,BirthDate
Boys,51.71,1,Hayden Wilkinson,Buna,51.71,129.27,77.11,133.81,340.19,Single-ply,SBD,M,
Boys,59.87,1,Tyler Greer,Woodville,58.51,183.7,86.18,161.03,430.91,Single-ply,SBD,M,
Boys,59.87,2,William Harding,Buna,58.06,122.47,90.72,136.08,349.27,Single-ply,SBD,M,
Boys,59.87,3,Blade Siau,Newton,59.42,106.59,68.04,115.67,290.3,Single-ply,SBD,M,
Boys,67.13,1,Jack Broughton,Buna,66.68,174.63,120.2,176.9,471.74,Single-ply,SBD,M,
Boys,67.13,2,Dylan Rogalski,Buna,63.05,163.29,95.25,165.56,424.11,Single-ply,SBD,M,
Boys,67.13,3,Zah'dyn Brooks,Newton,65.77,156.49,86.18,154.22,396.89,Single-ply,SBD,M,
Boys,67.13,4,Ladariun Ervin,Newton,63.05,147.42,79.38,167.83,394.63,Single-ply,SBD,M,
Boys,67.13,5,Trinis Wash,Newton,66.22,142.88,72.57,158.76,374.21,Single-ply,SBD,M,
Boys,67.13,6,Larry Sanford,Woodville,63.5,142.88,83.91,142.88,369.68,Single-ply,SBD,M,
Boys,67.13,7,Ronnie Douglas,Woodville,66.68,133.81,68.04,163.29,365.14,Single-ply,SBD,M,
Boys,67.13,8,Judd Beatty,Newton,61.69,122.47,61.23,131.54,315.25,Single-ply,SBD,M,
Boys,67.13,9,Kyson Hensarling,Woodville,60.78,111.13,61.23,136.08,308.44,Single-ply,SBD,M,
Boys,67.13,10,Roman Davis,Woodville,60.78,83.91,47.63,115.67,247.21,Single-ply,SBD,M,
Boys,67.13,DQ,Logan Brush,Woodville,63.05,129.27,68.04,,,Single-ply,SBD,M,
Boys,74.84,1,Elijah Cooper,Newton,73.94,170.1,102.06,172.37,444.52,Single-ply,SBD,M,
Boys,74.84,2,Alejandro Anastacio,Kirbyville,73.03,154.22,99.79,151.95,405.97,Single-ply,SBD,M,
Boys,74.84,3,Gavin Simmons,Woodville,72.57,156.49,72.57,158.76,387.82,Single-ply,SBD,M,
Boys,74.84,4,Robbie Phillips,Newton,71.67,147.42,86.18,147.42,381.02,Single-ply,SBD,M,
Boys,74.84,5,Chris Spikes,Newton,68.49,108.86,56.7,120.2,285.76,Single-ply,SBD,M,
Boys,74.84,6,Jermiah Wise,Woodville,69.4,108.86,47.63,106.59,263.08,Single-ply,SBD,M,
Boys,82.1,1,Trey Hatton,Woodville,79.83,163.29,102.06,183.7,449.06,Single-ply,SBD,M,
Boys,82.1,2,Leighton Foster,Newton,78.47,147.42,77.11,156.49,381.02,Single-ply,SBD,M,
Boys,82.1,3,Jacob Fuselier,Newton,76.66,97.52,68.04,133.81,299.37,Single-ply,SBD,M,
Boys,82.1,4,Kyler Hensarling,Woodville,75.3,113.4,61.23,113.4,288.03,Single-ply,SBD,M,
Boys,82.1,5,Chris Barlow,Woodville,81.19,106.59,70.31,102.06,278.96,Single-ply,SBD,M,
Boys,89.81,1,De'Anthony Gatson,Newton,88,199.58,106.59,185.97,492.15,Single-ply,SBD,M,
Boys,89.81,2,Parker O'Bannion,Kirbyville,89.81,174.63,92.99,149.69,417.3,Single-ply,SBD,M,
Boys,89.81,3,Tracy Hickman,Newton,85.28,147.42,88.45,170.1,405.97,Single-ply,SBD,M,
Boys,89.81,4,Trace Marks,Buna,84.82,140.61,102.06,145.15,387.82,Single-ply,SBD,M,
Boys,89.81,5,Landon Haynes,Woodville,82.55,151.95,81.65,136.08,369.68,Single-ply,SBD,M,
Boys,89.81,6,Ja'Marion Hanks,Newton,85.73,104.33,81.65,142.88,328.85,Single-ply,SBD,M,
Boys,99.79,1,Jacob Ard,Buna,92.08,181.44,122.47,151.95,455.86,Single-ply,SBD,M,
Boys,99.79,2,Bryce Westbrook,Newton,92.53,176.9,104.33,161.03,442.25,Single-ply,SBD,M,
Boys,99.79,3,Kason Adams,Newton,92.99,170.1,102.06,170.1,442.25,Single-ply,SBD,M,
Boys,99.79,4,Tim Lancaster,Kirbyville,93.89,167.83,81.65,158.76,408.23,Single-ply,SBD,M,
Boys,99.79,5,Devin Dempsey,Kirbyville,90.72,156.49,83.91,163.29,403.7,Single-ply,SBD,M,
Boys,99.79,6,Tyrique Gatson,Newton,97.52,142.88,83.91,147.42,374.21,Single-ply,SBD,M,
Boys,99.79,DQ,Coltyn Foster,Newton,95.25,172.37,,,,Single-ply,SBD,M,
Boys,109.77,1,Tyler Limbrick,Woodville,108.86,183.7,90.72,185.97,460.4,Single-ply,SBD,M,
Boys,109.77,2,Jack Gore,Woodville,100.7,181.44,102.06,170.1,453.59,Single-ply,SBD,M,
Boys,109.77,3,Noah Nova,Newton,105.69,158.76,95.25,163.29,417.3,Single-ply,SBD,M,
Boys,124.74,1,Destin Jackson,Newton,119.29,210.92,122.47,213.19,546.58,Single-ply,SBD,M,
Boys,124.74,2,Connor Hassig,Woodville,110.22,188.24,129.27,172.37,489.88,Single-ply,SBD,M,
Boys,124.74,3,Danny Glenn,Kirbyville,120.66,158.76,122.47,158.76,439.98,Single-ply,SBD,M,
Boys,124.74,4,Udarius Shankle,Woodville,119.75,190.51,86.18,158.76,435.45,Single-ply,SBD,M,
Boys,124.74+,1,Da'Quincy Wise,Woodville,127.01,226.8,124.74,215.46,566.99,Single-ply,SBD,M,
Boys,124.74+,2,Richard Bronson,Buna,142.43,190.51,145.15,192.78,528.44,Single-ply,SBD,M,
Boys,124.74+,3,Bryson Mansfield,Newton,129.73,170.1,88.45,181.44,439.98,Single-ply,SBD,M,
