Name,Age,BirthDate,Sex,Equipment,Division,BodyweightKg,WeightClassKg,Squat1Kg,Squat2Kg,Squat3Kg,Best3SquatKg,Bench1Kg,Bench2Kg,Bench3Kg,Best3BenchKg,Deadlift1Kg,Deadlift2Kg,Deadlift3Kg,Best3DeadliftKg,TotalKg,Event,Place,Bench4Kg,Deadlift4Kg,Country
Bin Love,38,,M,Raw,MR-O,106.3,110,132.5,145,155,155,90,100,-107.5,100,155,175,185,185,440,SBD,5,,,
Roland Kalani-Palama,53,,M,Raw,MR-M2,124,125,132.5,152.5,160,160,-90,90,102.5,102.5,205,220,230,230,492.5,SBD,1,,,
Jeff Robbins,28,,M,Raw,MR-O,108.7,110,160,170,180,180,110,117.5,125,125,205,220,230,230,535,SBD,3,,,
Yaniv Gur,46,,M,Raw,MR-O,124.2,125,180,195,205,205,130,140,-145,140,215,230,240,240,585,SBD,2,,,
Davy Capriles,18,,M,Wraps,MW-SubJR,114.8,125,235,250,260,260,180,190,-197.5,190,235,250,-260,250,700,SBD,1,,,
Andrew DeSesa,22,,M,Raw,MR-O,107.9,110,80,,,80,-130,137.5,-142.5,137.5,240,250,260,260,477.5,SBD,4,,,
Joseph Park,33,,M,Wraps,MW-O,107.9,110,220,235,-250,235,135,142.5,150,150,240,255,265,265,650,SBD,1,,,
Zachary Patton,19,,M,Wraps,MW-SubJR,109,110,265,277.5,290,290,192.5,205,-210,205,265,-290,-290,265,760,SBD,1,,,
Don Ehasz,31,,M,Raw,MR-O,103.4,110,265,275,285,285,165,170,177.5,177.5,265,280,295,295,757.5,SBD,2,,,
Reid Miranda,20,,M,Wraps,MW-O,99.6,100,287.5,307.5,317.5,317.5,182.5,192.5,197.5,197.5,297.5,317.5,-322.5,317.5,832.5,SBD,1,,,
Vincent Din,30,,M,Raw,MR-O,109.1,110,260,-272.5,272.5,272.5,200,217.5,-227.5,217.5,297.5,315,327.5,327.5,817.5,SBD,1,,,
Matthew Sollay,34,,M,Raw,MR-O,117.5,125,200,227.5,250,250,190,202.5,212.5,212.5,305,-320,-330,305,767.5,SBD,1,,,
Matthew Sollay,34,,M,Raw,MR-O,117.5,125,,,,,190,202.5,212.5,212.5,305,-320,-330,305,517.5,BD,1,,,
Matthew Sollay,34,,M,Raw,MR-O,117.5,125,,,,,,,,,305,-320,-330,305,305,D,1,,,
Brendan Wulf,21,,M,Raw,MR-JR,112.1,125,-235,235,,235,140,-145,-145,140,265,-270,,265,640,SBD,2,,,
Reid Miranda,20,,M,Wraps,MW-JR,99.6,100,287.5,307.5,317.5,317.5,182.5,192.5,197.5,197.5,297.5,317.5,-322.5,317.5,832.5,SBD,1,,,
Rick Love,56,,M,Raw,MR-M2,122.2,125,,,,,90,95,-100,95,,,,,95,B,1,,,
Yaniv Gur,46,,M,Raw,MR-M1,124.2,125,180,195,205,205,130,140,-145,140,215,230,240,240,585,SBD,1,,,
Christy Cordeiro-Pugh,46,,F,Raw,FR-M1,39.1,44,27.5,32.5,37.5,37.5,25,-27.5,27.5,27.5,65,72.5,-80,72.5,137.5,SBD,1,,,
Szu Han Yang,27,,F,Raw,FR-O,56,56,80,85,-92.5,85,35,37.5,-40,37.5,100,107.5,110,110,232.5,SBD,3,,,
Dana Shim-Palama,56,,F,Raw,FR-M2,50.9,52,52.5,-62.5,62.5,62.5,45,50,52.5,52.5,107.5,120,127.5,127.5,242.5,SBD,1,,,
Elizabeth Huang,27,,F,Raw,FR-O,58.1,60,82.5,-87.5,87.5,87.5,45,-52.5,-52.5,45,110,117.5,-125,117.5,250,SBD,2,,,
Ekaterina Taralova,34,,F,Raw,FR-O,55,56,90,95,-100,95,60,-62.5,62.5,62.5,120,-125,-125,120,277.5,SBD,2,,,
Jacqueline Wickens,23,,F,Wraps,FW-O,81.4,82.5,137.5,147.5,-155,147.5,77.5,82.5,87.5,87.5,120,132.5,142.5,142.5,377.5,SBD,1,,,
Dana Applegarth,21,,F,Raw,FR-O,58.3,60,105,110,-115,110,52.5,-57.5,-57.5,52.5,125,-135,-135,125,287.5,SBD,1,,,
Veronica Viar,24,,F,Raw,FR-O,75,75,132.5,142.5,-150,142.5,60,65,70,70,150,160,167.5,167.5,380,SBD,2,,,
Katrishia Lee,27,,F,Raw,FR-O,55.2,56,115,125,-135,125,70,-75,75,75,165,-175,-175,165,365,SBD,1,,,
Brittainy Chown,26,,F,Raw,FR-O,74.9,75,165,175,177.5,177.5,67.5,72.5,,72.5,185,200,-205,200,450,SBD,1,,,
Paul Bohm,34,,M,Raw,MR-O,88.6,90,82.5,87.5,95,95,55,62.5,-70,62.5,115,127.5,137.5,137.5,295,SBD,2,,,
Michael Lam,65,,M,Raw,MR-M3,73.6,75,80,85,100,100,25,45,55,55,130,150,-157.5,150,305,SBD,1,,,
Mark Micire,41,,M,Raw,MR-M1,85.6,90,105,110,120,120,-77.5,85,92.5,92.5,135,150,160,160,372.5,SBD,1,,,
Douglas Pan,29,,M,Raw,MR-O,84.6,90,125,135,145,145,95,102.5,-110,102.5,150,165,175,175,422.5,SBD,1,,,
Jeff Pugh,44,,M,Wraps,MW-M1,79.3,82.5,175,190,197.5,197.5,85,97.5,105,105,175,187.5,197.5,197.5,500,SBD,1,,,
Christian Castellanos,22,,M,Raw,MR-JR,65.8,67.5,145,165,185,185,95,-102.5,-102.5,95,190,207.5,217.5,217.5,497.5,SBD,1,,,
Robbie Capriles,22,,M,Raw,MR-JR,85.5,90,172.5,190,200,200,102.5,110,-117.5,110,197.5,215,-227.5,215,525,SBD,1,,,
Daniel Cook #1,27,,M,Raw,MR-O,82,82.5,160,175,180,180,-125,137.5,-142.5,137.5,205,220,-225,220,537.5,SBD,1,,,
Kevin Sosa,22,,M,Raw,MR-JR,104.9,110,-177.5,177.5,-182.5,177.5,122.5,130,137.5,137.5,210,220,-230,220,535,SBD,1,,,
Eric Mendoza,20,,M,Wraps,MW-O,76.2,82.5,182.5,202.5,212.5,212.5,-132.5,140,145,145,225,240,-247.5,240,597.5,SBD,1,,,
Eric Schwartz,46,,M,Raw,MR-O,97.7,100,200,215,227.5,227.5,135,145,155,155,225,242.5,-252.5,242.5,625,SBD,1,,,
Michael Lucero,22,,M,Raw,MR-O,98.3,100,-220,-220,-220,,140,-145,-145,140,-230,-230,-230,,,SBD,DQ,,,
Kevin Downing,30,,M,Raw,MR-O,96,100,210,225,-230,225,-135,140,-145,140,235,245,252.5,252.5,617.5,SBD,2,,,
Aaron Hagan,29,,M,Wraps,MW-O,96.8,100,230,-245,250,250,-132.5,142.5,150,150,237.5,252.5,255,255,655,SBD,2,,,
Aaron Hagan,29,,M,Raw,MR-O,96.8,100,,,,,,,,,237.5,252.5,255,255,255,D,2,,,
Paulo Tanaka,24,,M,Raw,MR-O,99.4,100,,,,,,,,,300,-320,-320,300,300,D,1,,,
Michael Lucero,22,,M,Raw,MR-JR,98.3,100,-220,-220,-220,,140,-145,-145,140,-230,-230,-230,,,SBD,DQ,,,
Steve Johnson #2,32,,M,Wraps,Pro MW-O,134.8,140,355,370,377.5,377.5,220,230,235,235,365,387.5,412.5,412.5,1025,SBD,1,,-427.5,USA
Richard Hawthorne,34,,M,Wraps,Pro MW-O,60,60,205,227.5,,227.5,115,125,,125,250,265,275,275,627.5,SBD,1,,,USA
Christopher Karmin,27,,M,Wraps,Pro MW-O,109.9,110,365,-382.5,-382.5,365,200,212.5,-217.5,212.5,275,-295,-295,275,852.5,SBD,2,,,USA
Jeff Justo,30,,M,Wraps,Pro MW-O,99.2,100,320,342.5,-350,342.5,160,175,,175,285,-300,-300,285,802.5,SBD,2,,,USA
Dustin Speed,34,,M,Wraps,Pro MW-O,145.7,140+,372.5,387.5,400,400,230,240,-245,240,327.5,-342.5,-342.5,327.5,967.5,SBD,1,,,USA
Jeremy Oleson,21,,M,Wraps,Pro MW-O,121.9,125,325,342.5,-367.5,342.5,187.5,197.5,207.5,207.5,320,337.5,-357.5,337.5,887.5,SBD,2,,,USA
Andrew Ottaway,23,,M,Wraps,Pro MW-O,88,90,242.5,262.5,-272.5,262.5,147.5,157.5,162.5,162.5,330,345,-360,345,770,SBD,1,,,USA
Mike Lackey,24,,M,Wraps,Pro MW-O,121.1,125,360,375,380,380,240,252.5,-257.5,252.5,340,350,-365,350,982.5,SBD,1,,,USA
Chris Bridgeford,23,,M,Wraps,Pro MW-O,109.2,110,362.5,380,-390,380,202.5,-215,215,215,360,377.5,-382.5,377.5,972.5,SBD,1,,,USA
Cailer Woolam,22,,M,Raw,Pro MR-O,96,100,267.5,280,290,290,165,182.5,195,195,-390,412.5,420.5,420.5,905.5,SBD,1,,,USA
Yury Belkin,26,,M,Wraps,Pro MW-O,99.6,100,380,-400,,380,225,232.5,,232.5,400,420,-430,420,1032.5,SBD,1,,,
Jeremy Avilla,29,,M,Wraps,Pro MW-O,89.9,90,-335,335,-350,335,177.5,-190,-190,177.5,-365,-387.5,,,,SBD,DQ,,,
Rhyss Keane,27,,M,Wraps,Pro MW-O,139.2,140,350,-380,-380,350,220,227.5,-232.5,227.5,350,-380,,350,927.5,SBD,2,,,
Pete Rubish,26,,M,Raw,Pro MR-O,108.7,110,,,,,195,205,-210,205,357.5,-385,,357.5,562.5,BD,1,,,USA
Matt Mitchell #1,25,,M,Wraps,Pro MW-O,113.2,125,-380,380,-400,380,217.5,-230,-230,217.5,25,,,25,622.5,SBD,3,,,USA
Jesse Anderson,23,,M,Wraps,Pro MW-O,137.9,140,380,392.5,-410,392.5,205,217.5,-227.5,217.5,227.5,,,227.5,837.5,SBD,3,,,USA
Brandon Perdue #1,33,,M,Raw,Pro MR-O,100,100,,,,,245,257.5,267.5,267.5,,,,,267.5,B,1,272.5,,USA
Vadym Dovhanyuk,30,,M,Raw,Pro MR-O,109.4,110,,,,,270,285,-295,285,,,,,285,B,1,,,
Robert Taylor,22,,M,Raw,Pro MR-O,131.8,140,,,,,245,-257.5,-257.5,245,,,,,245,B,1,,,
Michael Zundelevich,36,,M,Raw,Pro MR-O,109.1,110,,,,,210,-220,,210,,,,,210,B,2,,,
James Strickland,37,,M,Raw,Pro MR-O,124.6,125,,,,,287.5,-297.5,,287.5,,,,,287.5,B,1,,,
Stacia-Al Mahoe,20,,F,Raw,Pro FR-O,45.8,48,110,120,127.5,127.5,72.5,77.5,-80,77.5,152.5,165,-170,165,370,SBD,2,,,
Samyra Abweh,19,,F,Raw,Pro FR-O,47.8,48,112.5,125,-130,125,87.5,95,97.5,97.5,160,167.5,-172.5,167.5,390,SBD,1,,,USA
Lizette Salgado,22,,F,Wraps,Pro FW-O,59.5,60,132.5,140,145,145,62.5,67.5,-72.5,67.5,165,170,-175,170,382.5,SBD,2,,,
Emily Hu #1,35,,F,Raw,Pro FR-O,55.8,56,130,142.5,150,150,115,-122.5,122.5,122.5,170,180,-190,180,452.5,SBD,2,-127.5,,USA
Kelsey Horton,27,,F,Raw,Pro FR-O,61.6,67.5,170,177.5,-182.5,177.5,77.5,-82.5,-82.5,77.5,177.5,190,-200,190,445,SBD,1,,,USA
Marianna Gasparyan,28,1989-02-25,F,Wraps,Pro FW-O,60,60,200,220,240,240,110,120,125,125,180,-205,-205,180,545,SBD,1,,,
Stefanie Cohen,25,,F,Raw,Pro FR-O,55.2,56,160,172.5,182.5,182.5,75,85,92.5,92.5,-195,207.5,215,215,490,SBD,1,,220,USA
Lizette Salgado,22,,F,Wraps,Pro FW-JR,59.5,60,132.5,140,145,145,62.5,67.5,-72.5,67.5,165,170,-175,170,382.5,SBD,1,,,
Jimmy Doyle,29,,M,Raw,Pro MR-O,98.2,100,232.5,242.5,-252.5,242.5,170,182.5,-185,182.5,287.5,310,317.5,317.5,742.5,SBD,3,,,
Damien Pezzuti,30,,M,Raw,Pro MR-O,92.7,100,275,292.5,317.5,317.5,180,190,200,200,295,312.5,-327.5,312.5,830,SBD,2,,,USA
Adam Werner,39,,M,Raw,Pro MR-O,109.5,110,305,-317.5,-317.5,305,205,-212.5,212.5,212.5,300,310,317.5,317.5,835,SBD,3,,,USA
John Haack,24,,M,Raw,Pro MR-O,82.2,82.5,275,,,275,182.5,,,182.5,300,317.5,330,330,787.5,SBD,1,,,USA
Robb Philippus,35,,M,Raw,Pro MR-O,138.9,140,377.5,405,418.5,418.5,217.5,235,242.5,242.5,300,327.5,-345,327.5,988.5,SBD,1,,,USA
Tee Popoola,33,,M,Raw,Pro MR-O,109.8,110,340,-365,-365,340,232.5,252.5,-260,252.5,320,-330,-330,320,912.5,SBD,2,,,USA
Kevin Oak,31,1986-05-09,M,Raw,Pro MR-O,109.2,110,355,370,,370,227.5,240,-250,240,340,,-350,340,950,SBD,1,,,USA
Andrew Herbert,35,,M,Raw,Pro MR-O,116.2,125,300,320,330,330,,,,,,,,,330,S,1,,,USA
