Division,WeightClassKg,Place,Name,Team,BodyweightKg,Best3SquatKg,Best3BenchKg,Best3DeadliftKg,TotalKg,Equipment,Event,Sex,BirthDate
Girls,44.23,1,Arely Ortega,Edinburg Quest College Prep,44.18,117.93,61.23,117.93,297.1,Single-ply,SBD,F,
Girls,44.23,2,Alexa Prado,Hidalgo Early College,42.82,97.52,52.16,102.06,251.74,Single-ply,SBD,F,
Girls,44.23,3,Angelina Zuniga,San Benito,41.73,92.99,47.63,92.99,233.6,Single-ply,SBD,F,
Girls,44.23,DQ,Emily Davila,Los Fresnos,41.19,77.11,,,,Single-ply,SBD,F,
Girls,47.85,1,Charley Moreno,Rio Hondo,46.9,95.25,52.16,104.33,251.74,Single-ply,SBD,F,
Girls,47.85,2,Anna Rodriguez,Los Fresnos,46.99,92.99,45.36,111.13,249.48,Single-ply,SBD,F,
Girls,47.85,3,Abigail Vazquez,Edinburg Idea College Prep,47.36,102.06,31.75,97.52,231.33,Single-ply,SBD,F,
Girls,47.85,4,Ruby Carrillo,Brownsville Rivera,46.9,79.38,43.09,95.25,217.72,Single-ply,SBD,F,
Girls,47.85,5,Stephanie Ortega,Edinburg Quest College Prep,46.36,88.45,40.82,74.84,204.12,Single-ply,SBD,F,
Girls,47.85,6,Romina Encina,San Benito,46.9,81.65,29.48,88.45,199.58,Single-ply,SBD,F,
Girls,51.94,1,Misty Garza,Rio Hondo,50.17,117.93,65.77,147.42,331.12,Single-ply,SBD,F,
Girls,51.94,2,Viviana Lopez,Port Isabel,51.07,136.08,56.7,138.35,331.12,Single-ply,SBD,F,
Girls,51.94,3,Devin Balderrama,Los Fresnos,51.71,127.01,68.04,129.27,324.32,Single-ply,SBD,F,
Girls,51.94,4,Kc Aguilera,Mission,51.07,142.88,61.23,108.86,312.98,Single-ply,SBD,F,
Girls,51.94,5,Claritza Flores,Los Fresnos,51.26,124.74,49.9,95.25,269.89,Single-ply,SBD,F,
Girls,51.94,6,Hailey Rivas,Edinburg Quest College Prep,51.89,102.06,47.63,102.06,251.74,Single-ply,SBD,F,
Girls,51.94,7,Alejandra Reyes,Edinburg Quest College Prep,51.26,104.33,43.09,102.06,249.48,Single-ply,SBD,F,
Girls,51.94,8,Ahiliyah Wheeler,Edinburg Quest College Prep,49.53,97.52,47.63,92.99,238.14,Single-ply,SBD,F,
Girls,51.94,9,Rosemary Carrillo,Brownsville Rivera,50.26,65.77,47.63,99.79,213.19,Single-ply,SBD,F,
Girls,51.94,10,Deandra Ramirez,Mercedes,50.62,83.91,43.09,83.91,210.92,Single-ply,SBD,F,
Girls,51.94,11,Brianna Aguilar,Brownsville Rivera,48.99,83.91,34.02,88.45,206.38,Single-ply,SBD,F,
Girls,51.94,12,Chastity Venecia,McAllen IDEA College Prep,51.89,79.38,27.22,92.99,199.58,Single-ply,SBD,F,
Girls,56.02,1,Angelin Cruz,San Benito,55.88,133.81,58.97,140.61,333.39,Single-ply,SBD,F,
Girls,56.02,2,Alyzza Ortiz,Edinburg Quest College Prep,55.79,122.47,68.04,127.01,317.51,Single-ply,SBD,F,
Girls,56.02,3,Abigail Castellanos,Rio Hondo,54.79,136.08,52.16,122.47,310.71,Single-ply,SBD,F,
Girls,56.02,4,Julie Del Bosque,Rio Hondo,55.43,120.2,52.16,122.47,294.84,Single-ply,SBD,F,
Girls,56.02,5,Kimberly Garza,Los Fresnos,54.98,111.13,52.16,108.86,272.16,Single-ply,SBD,F,
Girls,56.02,6,Jacqueline Perez,Port Isabel,54.52,99.79,49.9,120.2,269.89,Single-ply,SBD,F,
Girls,56.02,7,Karen Macias,Los Fresnos,55.43,83.91,56.7,120.2,260.82,Single-ply,SBD,F,
Girls,56.02,8,Lindsey Gutierrez,La Villa,55.16,106.59,52.16,92.99,251.74,Single-ply,SBD,F,
Girls,56.02,9,Aylinn Garza,Brownsville Rivera,53.89,79.38,52.16,86.18,217.72,Single-ply,SBD,F,
Girls,56.02,10,Ayleen Perez,Mission,52.25,81.65,43.09,77.11,201.85,Single-ply,SBD,F,
Girls,56.02,11,Jocelyn Mata,Santa Rosa,53.89,70.31,34.02,63.5,167.83,Single-ply,SBD,F,
Girls,56.02,DQ,Jesselen Tijerina,La Villa,53.98,92.99,,,,Single-ply,SBD,F,
Girls,60.1,1,Brianna Marquez,Mission,60.06,181.44,86.18,151.95,419.57,Single-ply,SBD,F,
Girls,60.1,2,Melanie Davila,San Benito,60.06,122.47,72.57,142.88,337.93,Single-ply,SBD,F,
Girls,60.1,3,Morgan Williams,Los Fresnos,59.06,124.74,47.63,136.08,308.44,Single-ply,SBD,F,
Girls,60.1,4,Adele Rios,Raymondville,58.88,124.74,49.9,115.67,290.3,Single-ply,SBD,F,
Girls,60.1,5,Jazmin Marroquin,San Benito,58.6,111.13,54.43,120.2,285.76,Single-ply,SBD,F,
Girls,60.1,6,Emily Flores,Rio Hondo,57.33,120.2,52.16,97.52,269.89,Single-ply,SBD,F,
Girls,60.1,7,Kassandra Vallejo,La Villa,57.33,108.86,45.36,92.99,247.21,Single-ply,SBD,F,
Girls,60.1,8,Lourdes Bernal,Brownsville Rivera,60.06,83.91,40.82,99.79,224.53,Single-ply,SBD,F,
Girls,67.36,1,Jenifher Gallegos,San Benito,67.22,179.17,86.18,133.81,399.16,Single-ply,SBD,F,
Girls,67.36,2,Sindy Garcia,Edinburg Idea College Prep,66.32,145.15,79.38,138.35,362.87,Single-ply,SBD,F,
Girls,67.36,3,Maria Gonzalez,Los Fresnos,66.68,138.35,63.5,136.08,337.93,Single-ply,SBD,F,
Girls,67.36,4,Sophia Aguilera,Los Fresnos,63.32,124.74,63.5,145.15,333.39,Single-ply,SBD,F,
Girls,67.36,5,Yocelin Chavez,Hidalgo Early College,64.95,129.27,61.23,133.81,324.32,Single-ply,SBD,F,
Girls,67.36,6,Marbella Galindo,Los Fresnos,67.22,115.67,61.23,117.93,294.84,Single-ply,SBD,F,
Girls,67.36,7,Aalyiah Martinez,Brownsville Rivera,66.13,108.86,58.97,124.74,292.57,Single-ply,SBD,F,
Girls,67.36,8,Cassity Villarreal,Rio Hondo,67.04,129.27,45.36,106.59,281.23,Single-ply,SBD,F,
Girls,67.36,9,Jerlynn Lozano,Santa Rosa,65.86,92.99,52.16,106.59,251.74,Single-ply,SBD,F,
Girls,67.36,DQ,Leslie Flores,Santa Rosa,64.86,120.2,,,,Single-ply,SBD,F,
Girls,67.36,DQ,Valeria Sanchez,Brownsville Rivera,67.31,52.16,,,,Single-ply,SBD,F,
Girls,67.36,DQ,Belen Carrillo,Brownsville Rivera,61.42,70.31,,,,Single-ply,SBD,F,
Girls,67.36,DQ,Valeria De Leon,Brownsville Rivera,61.51,83.91,,,,Single-ply,SBD,F,
Girls,67.36,DQ,Celeste Rodriguez,Lyford,67.31,,,,,Single-ply,SBD,F,
Girls,75.07,1,Yaritza Mar,Hidalgo Early College,68.4,172.37,88.45,145.15,405.97,Single-ply,SBD,F,
Girls,75.07,2,Jacqueline Ybarra,Edinburg Idea College Prep,74.12,151.95,77.11,138.35,367.41,Single-ply,SBD,F,
Girls,75.07,3,Yesenia Garcia,La Villa,70.4,131.54,81.65,122.47,335.66,Single-ply,SBD,F,
Girls,75.07,4,Madelyn Galvan,Port Isabel,68.04,138.35,63.5,131.54,333.39,Single-ply,SBD,F,
Girls,75.07,5,Sofia Jimenez,San Benito,72.67,142.88,61.23,113.4,317.51,Single-ply,SBD,F,
Girls,75.07,6,Cassandra Martinez,Mercedes,73.21,138.35,52.16,127.01,317.51,Single-ply,SBD,F,
Girls,75.07,7,Jaden Ybarra,San Benito,74.3,127.01,56.7,124.74,308.44,Single-ply,SBD,F,
Girls,75.07,8,Pamela Torres,La Villa,69.22,117.93,58.97,113.4,290.3,Single-ply,SBD,F,
Girls,75.07,9,Karla Rebanales,Edinburg Quest College Prep,70.22,120.2,52.16,97.52,269.89,Single-ply,SBD,F,
Girls,75.07,10,Angela Chavez,Hidalgo Early College,71.12,97.52,29.48,97.52,224.53,Single-ply,SBD,F,
Girls,75.07,11,Linsay Reyes,Hidalgo Early College,72.39,70.31,43.09,95.25,208.65,Single-ply,SBD,F,
Girls,75.07,12,Erin Salinas,McAllen IDEA College Prep,68.04,63.5,34.02,70.31,167.83,Single-ply,SBD,F,
Girls,75.07,DQ,Elizabeth Castellanos,Rio Hondo,73.21,115.67,,,,Single-ply,SBD,F,
Girls,82.33,1,Angelina Cervantes,Brownsville Rivera,82.28,138.35,81.65,147.42,367.41,Single-ply,SBD,F,
Girls,82.33,2,Julie Torres,Rio Hondo,80.1,129.27,65.77,142.88,337.93,Single-ply,SBD,F,
Girls,82.33,3,Karla Mata,Brownsville Rivera,79.47,120.2,54.43,136.08,310.71,Single-ply,SBD,F,
Girls,82.33,4,Perla Mercado,Brownsville Porter,81.92,129.27,49.9,124.74,303.91,Single-ply,SBD,F,
Girls,82.33,5,Rubyann Rincon,Mercedes,75.48,120.2,47.63,120.2,288.03,Single-ply,SBD,F,
Girls,82.33,DQ,Kylee Flores,Santa Rosa,77.66,,,,,Single-ply,SBD,F,
Girls,90.04,1,Cristina Cortez,Hidalgo Early College,83.46,181.44,83.91,174.63,439.98,Single-ply,SBD,F,
Girls,90.04,2,Jazlynn Hernandez,San Benito,87,138.35,56.7,133.81,328.85,Single-ply,SBD,F,
Girls,90.04,3,Kendra Garza,San Benito,86.36,108.86,43.09,122.47,274.42,Single-ply,SBD,F,
Girls,90.04,DQ,Alexandra Hall,Edinburg Quest College Prep,89.36,167.83,,,,Single-ply,SBD,F,
Girls,100.02,1,Megan Ayala,San Benito,99.43,167.83,97.52,151.95,417.3,Single-ply,SBD,F,
Girls,100.02,2,Alexis Rodriguez,Brownsville Porter,91.81,147.42,74.84,117.93,340.19,Single-ply,SBD,F,
Girls,100.02,3,April Puente,Port Isabel,91.72,147.42,70.31,113.4,331.12,Single-ply,SBD,F,
Girls,100.02,4,Itzel Riojas,Monte Alto,91.63,113.4,61.23,99.79,274.42,Single-ply,SBD,F,
Girls,100.02,5,Nyda Hernandez,Santa Rosa,94.26,102.06,31.75,113.4,247.21,Single-ply,SBD,F,
Girls,100.02,DQ,Kassandra Garza,Mission,96.43,127.01,45.36,,,Single-ply,SBD,F,
Girls,100.02,DQ,Veronica Olivarez,Santa Rosa,92.17,90.72,,,,Single-ply,SBD,F,
Girls,117.71,1,Melanie Morales,Edinburg Idea College Prep,115.39,213.19,133.81,170.1,517.1,Single-ply,SBD,F,
Girls,117.71,2,Erika Guerrero,Mission,105.87,235.87,90.72,147.42,474,Single-ply,SBD,F,
Girls,117.71,3,Victoria Olivarez,Santa Rosa,102.69,165.56,79.38,161.03,405.97,Single-ply,SBD,F,
Girls,117.71,4,Joslynn Contreras,La Villa,115.48,142.88,92.99,142.88,378.75,Single-ply,SBD,F,
Girls,117.71,5,Yaretzy Gomez,La Villa,110.5,129.27,68.04,129.27,326.59,Single-ply,SBD,F,
Girls,117.71,6,Sarah Longoria,Mercedes,108.41,129.27,47.63,120.2,297.1,Single-ply,SBD,F,
Girls,117.71,7,Azeneth Ibarra,Hidalgo Early College,101.7,99.79,45.36,102.06,247.21,Single-ply,SBD,F,
Girls,117.71,DQ,Amor Sosa,Rio Hondo,103.24,163.29,74.84,,,Single-ply,SBD,F,
Girls,117.71,DQ,Desiree Martinez,Raymondville,107.86,158.76,,,,Single-ply,SBD,F,
Girls,117.71,DQ,Karina Medina,Rio Hondo,102.24,,,,,Single-ply,SBD,F,
Girls,117.71+,1,Aaliyah Prater,Brownsville Porter,121.83,154.22,81.65,131.54,367.41,Single-ply,SBD,F,
Girls,117.71+,2,Kayla Ruiz,San Benito,126.28,136.08,61.23,117.93,315.25,Single-ply,SBD,F,
