Division,WeightClassKg,Place,Name,Team,BodyweightKg,Best3SquatKg,Best3BenchKg,Best3DeadliftKg,TotalKg,Equipment,Event,Sex
Boys,51.71,1,Mason Lejune,Lindale,48.99,102.06,56.7,120.2,278.96,Single-ply,SBD,M
Boys,51.71,DQ,Brandon Stidham,Gladewater Sabine,51.26,192.78,99.79,,,Single-ply,SBD,M
Boys,55.79,1,Mauro Gallegos,Gladewater Sabine,55.43,174.63,108.86,183.7,467.2,Single-ply,SBD,M
Boys,55.79,2,Coleman Hardin,Frankston,54.43,151.95,70.31,142.88,365.14,Single-ply,SBD,M
Boys,55.79,3,Sir Charles Johnson,Jefferson,55.34,65.77,52.16,92.99,210.92,Single-ply,SBD,M
Boys,59.87,1,Jaidon Garrick,Lindale,58.97,149.69,72.57,167.83,390.09,Single-ply,SBD,M
Boys,59.87,2,JJ Beckfield,Frankston,58.97,145.15,65.77,149.69,360.61,Single-ply,SBD,M
Boys,59.87,3,Noble Giles,Frankston,58.97,124.74,77.11,156.49,358.34,Single-ply,SBD,M
Boys,59.87,4,Kaleb Kerns,White Oak,58.06,111.13,72.57,131.54,315.25,Single-ply,SBD,M
Boys,59.87,5,Dane Reddmen,White Oak,58.97,106.59,,,106.59,Single-ply,S,M
Boys,59.87,DQ,Josh Chiado,Jefferson,57.15,88.45,,,,Single-ply,S,M
Boys,67.13,1,Chadd Cole,Troup,65.77,167.83,99.79,174.63,442.25,Single-ply,SBD,M
Boys,67.13,2,Jaden Taylor,Lindale,61.69,176.9,81.65,170.1,428.64,Single-ply,SBD,M
Boys,67.13,3,Eduardo Rojo,Troup,67.13,113.4,77.11,147.42,337.93,Single-ply,SBD,M
Boys,67.13,4,Jonathan Escobar,Gladewater Sabine,64.41,111.13,61.23,147.42,319.78,Single-ply,SBD,M
Boys,67.13,5,John Ford #2,Troup,65.32,113.4,70.31,115.67,299.37,Single-ply,SBD,M
Boys,67.13,6,Caleb Smith,Troup,65.77,192.78,92.99,,285.76,Single-ply,SB,M
Boys,67.13,7,Alec Morris,Gladewater Sabine,62.6,136.08,,,136.08,Single-ply,S,M
Boys,67.13,8,David Hall,Mount Enterprise,66.22,120.2,,,120.2,Single-ply,S,M
Boys,67.13,DQ,Brian Vaca,Longview Spring Hill,61.23,,,,,Single-ply,S,M
Boys,74.84,1,Michael Zuniga,Troup,74.39,188.24,115.67,163.29,467.2,Single-ply,SBD,M
Boys,74.84,2,Jose Bueno,Center,74.39,188.24,97.52,165.56,451.32,Single-ply,SBD,M
Boys,74.84,3,Kole Stripland,Gladewater Sabine,72.12,120.2,83.91,127.01,331.12,Single-ply,SBD,M
Boys,74.84,4,Zach Cobb,White Oak,72.12,120.2,70.31,131.54,322.05,Single-ply,SBD,M
Boys,74.84,5,Jeremiah Ramirez,Troup,68.04,104.33,70.31,113.4,288.03,Single-ply,SBD,M
Boys,74.84,6,Logan Smith,White Oak,74.39,102.06,61.23,108.86,272.16,Single-ply,SBD,M
Boys,74.84,DQ,Aaren Webb,Gladewater Sabine,73.03,,,,,Single-ply,SBD,M
Boys,74.84,DQ,Bryce Attaway,Troup,73.94,181.44,104.33,,,Single-ply,SBD,M
Boys,74.84,DQ,Mathew Shankles,Longview Spring Hill,69.4,124.74,,,,Single-ply,SBD,M
Boys,82.1,1,Ramiro Martinez,Troup,78.93,215.46,131.54,249.48,596.47,Single-ply,SBD,M
Boys,82.1,2,Eli Morris,Gladewater Sabine,75.93,188.24,129.27,201.85,519.36,Single-ply,SBD,M
Boys,82.1,3,Bear Soriano,Lindale,81.65,185.97,97.52,170.1,453.59,Single-ply,SBD,M
Boys,82.1,4,Jake Liker,Center,79.38,147.42,90.72,142.88,381.02,Single-ply,SBD,M
Boys,82.1,DQ,Conner Griffith,Frankston,77.56,129.27,,,,Single-ply,SBD,M
Boys,82.1,DQ,Carson Hester,Gladewater Sabine,81.65,,,,,Single-ply,SBD,M
Boys,82.1,DQ,Oscar Gallegos,Longview Spring Hill,81.65,174.63,104.33,,,Single-ply,SBD,M
Boys,82.1,DQ,Michael Marrs,Longview Spring Hill,80.74,142.88,,,,Single-ply,SBD,M
Boys,82.1,DQ,Tristan Clark,Troup,81.19,,,,,Single-ply,SBD,M
Boys,89.81,1,Witt Dockens,Center,88,272.16,142.88,226.8,641.83,Single-ply,SBD,M
Boys,89.81,2,David Bledsoe,Lindale,88,240.4,127.01,254.01,621.42,Single-ply,SBD,M
Boys,89.81,3,Patrick Martinez,White Oak,87.09,199.58,102.06,204.12,505.76,Single-ply,SBD,M
Boys,89.81,4,Ethan Thorton,Lindale,87.09,192.78,102.06,183.7,478.54,Single-ply,SBD,M
Boys,89.81,5,Cody Dickerson,Frankston,86.64,165.56,83.91,156.49,405.97,Single-ply,SBD,M
Boys,89.81,6,Brandon Krenek,Longview Spring Hill,86.18,142.88,79.38,142.88,365.14,Single-ply,SBD,M
Boys,89.81,7,Chase Tucker,White Oak,85.73,113.4,68.04,97.52,278.96,Single-ply,SBD,M
Boys,89.81,DQ,Richard Matkin,Longview Spring Hill,87.54,183.7,,,,Single-ply,SBD,M
Boys,99.79,1,Trent Allen,Troup,93.44,269.89,147.42,229.06,646.37,Single-ply,SBD,M
Boys,99.79,2,Katavious Evans,Center,94.8,233.6,102.06,210.92,546.58,Single-ply,SBD,M
Boys,99.79,3,Jonah Flores,Lindale,99.34,204.12,104.33,190.51,498.95,Single-ply,SBD,M
Boys,99.79,4,Ty McDaniel,Lindale,97.52,278.96,138.35,,417.3,Single-ply,SB,M
Boys,99.79,5,Asher Foster,Gladewater Sabine,97.52,147.42,106.59,158.76,412.77,Single-ply,SBD,M
Boys,99.79,6,Anthony Santa-Maria,Troup,94.35,147.42,108.86,145.15,401.43,Single-ply,SBD,M
Boys,99.79,7,Nathane Deeb,Frankston,95.25,136.08,83.91,142.88,362.87,Single-ply,SBD,M
Boys,99.79,8,Luke Ummel,White Oak,97.07,117.93,61.23,111.13,290.3,Single-ply,SBD,M
Boys,99.79,DQ,Gonzalo Rojo,Troup,97.98,170.1,,,,Single-ply,SBD,M
Boys,109.77,1,Jesse Owen,Frankston,108.86,226.8,170.1,208.65,605.55,Single-ply,SBD,M
Boys,109.77,2,Logan Holloway,Center,109.77,219.99,133.81,199.58,553.38,Single-ply,SBD,M
Boys,109.77,3,James Sandifer,Lindale,101.15,226.8,104.33,219.99,551.11,Single-ply,SBD,M
Boys,109.77,4,Josh Caruso,Hawkins,100.7,174.63,88.45,185.97,449.06,Single-ply,SBD,M
Boys,109.77,5,Jacob Kimbrough,Longview Spring Hill,106.14,165.56,95.25,181.44,442.25,Single-ply,SBD,M
Boys,109.77,6,Brendon Mooney,Hawkins,103.42,149.69,88.45,165.56,403.7,Single-ply,SBD,M
Boys,109.77,7,Augustin Jaimes,Troup,107.95,147.42,83.91,136.08,367.41,Single-ply,SBD,M
Boys,109.77,8,Vidal Gutierrez,Hawkins,102.97,106.59,81.65,102.06,290.3,Single-ply,SBD,M
Boys,109.77,DQ,Nick Haney,Frankston,100.7,145.15,,,,Single-ply,SBD,M
Boys,124.74,1,Josh Porter,Frankston,119.29,278.96,147.42,247.21,673.58,Single-ply,SBD,M
Boys,124.74,2,Matt Edwards,Lindale,119.29,254.01,147.42,240.4,641.83,Single-ply,SBD,M
Boys,124.74,3,Cade Blount,Longview Spring Hill,121.56,226.8,106.59,226.8,560.19,Single-ply,SBD,M
Boys,124.74,4,Carson Manasse,Longview Spring Hill,114.31,210.92,111.13,226.8,548.85,Single-ply,SBD,M
Boys,124.74,5,Jessie Hemmilenk,Lindale,112.04,206.38,115.67,213.19,535.24,Single-ply,SBD,M
Boys,124.74,6,Jace Phillips #1,Lindale,112.94,219.99,106.59,190.51,517.1,Single-ply,SBD,M
Boys,124.74,7,Zach Collette,Hawkins,114.76,102.06,83.91,142.88,328.85,Single-ply,SBD,M
Boys,124.74,8,Jason Lazaro,Overton,124.28,129.27,74.84,111.13,315.25,Single-ply,SBD,M
Boys,124.74,9,Treven Wright,Overton,120.66,124.74,56.7,90.72,272.16,Single-ply,SBD,M
Boys,124.74,DQ,Rocky Cunningham,Jefferson,114.76,185.97,,,,Single-ply,SBD,M
Boys,124.74+,1,Malik Gilliam,Troup,165.56,317.51,149.69,197.31,664.51,Single-ply,SBD,M
Boys,124.74+,2,Matthew Davis,Lindale,168.28,265.35,115.67,206.38,587.4,Single-ply,SBD,M
Boys,124.74+,3,Jon-Michael McKinney,Gladewater Sabine,135.62,204.12,136.08,208.65,548.85,Single-ply,SBD,M
Boys,124.74+,4,Braeden Perry,Gladewater Sabine,135.17,158.76,131.54,181.44,471.74,Single-ply,SBD,M
Boys,124.74+,5,Luke Sandifer,Lindale,127.46,179.17,86.18,172.37,437.72,Single-ply,SBD,M
Boys,124.74+,DQ,Cory Jackson,Frankston,133.81,124.74,,,,Single-ply,SBD,M
