Division,WeightClassKg,Place,Name,Team,BodyweightKg,Best3SquatKg,Best3BenchKg,Best3DeadliftKg,TotalKg,Equipment,Event,Sex,BirthDate
Boys,51.71,1,Justin Moss,Burleson,51.44,149.69,81.65,156.49,387.82,Single-ply,SBD,M,
Boys,51.71,DQ,Erick Samoya,Burleson,51.62,156.49,77.11,,,Single-ply,SBD,M,
Boys,51.71,DQ,Roberto Ortiz,Alvarado,50.26,136.08,,,,Single-ply,SBD,M,
Boys,55.79,1,Dakota Justus,Joshua,55.07,136.08,72.57,154.22,362.87,Single-ply,SBD,M,
Boys,55.79,2,Matthew Smith,Burleson,52.62,111.13,70.31,124.74,306.17,Single-ply,SBD,M,
Boys,55.79,DQ,Ryan Holton,Godley,53.43,83.91,,,,Single-ply,SBD,M,
Boys,59.87,1,Titus Newsom,Joshua,59.51,158.76,72.57,142.88,374.21,Single-ply,SBD,M,
Boys,59.87,2,Tyler Jessup,Alvarado,59.42,129.27,86.18,136.08,351.53,Single-ply,SBD,M,
Boys,59.87,3,Ben Frost,Cleburne,58.51,120.2,81.65,124.74,326.59,Single-ply,SBD,M,
Boys,67.13,1,Alex Ansay,Alvarado,62.14,158.76,102.06,170.1,430.91,Single-ply,SBD,M,
Boys,67.13,2,Genbard Lumino,Midlothian,62.41,149.69,92.99,170.1,412.77,Single-ply,SBD,M,
Boys,67.13,3,Trenton Jonson,Cleburne,62.6,154.22,86.18,151.95,392.36,Single-ply,SBD,M,
Boys,67.13,4,Cameron Conklin,Joshua,67.13,138.35,92.99,158.76,390.09,Single-ply,SBD,M,
Boys,67.13,5,Wyatt Achey,Midlothian,60.51,147.42,77.11,158.76,383.29,Single-ply,SBD,M,
Boys,67.13,6,Ryen Brake,Burleson Centennial,65.5,131.54,83.91,165.56,381.02,Single-ply,SBD,M,
Boys,67.13,7,Chris Trout,Cleburne,64.95,138.35,77.11,142.88,358.34,Single-ply,SBD,M,
Boys,67.13,8,Isaiah Garcia,Alvarado,63.32,113.4,74.84,136.08,324.32,Single-ply,SBD,M,
Boys,67.13,9,Cayman Spence,Burleson Centennial,67.13,113.4,68.04,138.35,319.78,Single-ply,SBD,M,
Boys,67.13,10,Matthew Cavallero,Burleson Centennial,62.51,99.79,72.57,129.27,301.64,Single-ply,SBD,M,
Boys,67.13,DQ,Adrien Moreno,Burleson,66.59,163.29,79.38,,,Single-ply,SBD,M,
Boys,74.84,1,Jordan McKenzie,Midlothian,74.21,226.8,131.54,204.12,562.45,Single-ply,SBD,M,
Boys,74.84,2,Ethan Brown,Burleson,72.48,188.24,102.06,197.31,487.61,Single-ply,SBD,M,
Boys,74.84,3,Nico Keramidas,Cleburne,73.75,188.24,90.72,181.44,460.4,Single-ply,SBD,M,
Boys,74.84,4,Max Allen,Midlothian,74.39,154.22,99.79,174.63,428.64,Single-ply,SBD,M,
Boys,74.84,5,Michael Brown,Burleson Centennial,69.04,147.42,90.72,170.1,408.23,Single-ply,SBD,M,
Boys,74.84,6,Elliot Hall,Godley,73.57,158.76,79.38,145.15,383.29,Single-ply,SBD,M,
Boys,74.84,7,Dawson Lunsford,Godley,73.94,142.88,79.38,136.08,358.34,Single-ply,SBD,M,
Boys,74.84,8,Kolby Smith,Joshua,69.94,108.86,79.38,129.27,317.51,Single-ply,SBD,M,
Boys,74.84,9,Dylan Cox,Burleson Centennial,72.57,111.13,65.77,138.35,315.25,Single-ply,SBD,M,
Boys,74.84,DQ,Ethan Hernandez,Burleson,72.67,163.29,97.52,,,Single-ply,SBD,M,
Boys,74.84,DQ,Damiyon Stevens,Godley,70.49,106.59,70.31,,,Single-ply,SBD,M,
Boys,82.1,1,Wesley Free,Cleburne,79.29,235.87,129.27,208.65,573.79,Single-ply,SBD,M,
Boys,82.1,2,Braxton Bailey,Cleburne,80.83,238.14,122.47,213.19,573.79,Single-ply,SBD,M,
Boys,82.1,3,Isaiah Claveran,Burleson,82.1,181.44,120.2,215.46,517.1,Single-ply,SBD,M,
Boys,82.1,4,Laine Martin,Midlothian,82.1,185.97,108.86,195.04,489.88,Single-ply,SBD,M,
Boys,82.1,5,Kolby Bartlett,Godley,75.84,183.7,90.72,181.44,455.86,Single-ply,SBD,M,
Boys,82.1,6,Dylan Tigert,Alvarado,78.29,165.56,102.06,181.44,449.06,Single-ply,SBD,M,
Boys,82.1,7,Justin Marshall,Joshua,80.74,147.42,90.72,158.76,396.89,Single-ply,SBD,M,
Boys,82.1,8,Urrutia Judah,Burleson Centennial,81.1,120.2,74.84,127.01,322.05,Single-ply,SBD,M,
Boys,89.81,1,Kenny Long,Burleson Centennial,88.63,238.14,156.49,240.4,635.03,Single-ply,SBD,M,
Boys,89.81,2,Adrian Padilla,Burleson,83.82,190.51,115.67,204.12,510.29,Single-ply,SBD,M,
Boys,89.81,3,Branton Huffman,Midlothian,88.99,181.44,120.2,188.24,489.88,Single-ply,SBD,M,
Boys,89.81,4,Gabriel Serna,Burleson Centennial,89.81,156.49,111.13,181.44,449.06,Single-ply,SBD,M,
Boys,99.79,1,Adyn Schwarzer,Burleson,93.53,199.58,129.27,244.94,573.79,Single-ply,SBD,M,
Boys,99.79,2,Andrew Freese,Burleson,96.71,206.38,111.13,226.8,544.31,Single-ply,SBD,M,
Boys,99.79,3,Brad Gregory,Joshua,98.7,204.12,124.74,204.12,532.97,Single-ply,SBD,M,
Boys,99.79,4,Genaro Vital,Cleburne,93.26,204.12,138.35,188.24,530.7,Single-ply,SBD,M,
Boys,99.79,5,Gabriel Tatum,Burleson Centennial,94.44,179.17,111.13,188.24,478.54,Single-ply,SBD,M,
Boys,99.79,6,Ethan Hill,Midlothian,95.71,142.88,129.27,174.63,446.79,Single-ply,SBD,M,
Boys,99.79,7,Jacob Lindley,Midlothian,95.44,156.49,99.79,174.63,430.91,Single-ply,SBD,M,
Boys,99.79,8,David Batten,Burleson Centennial,99.61,140.61,92.99,161.03,394.63,Single-ply,SBD,M,
Boys,99.79,9,Caden Brantley,Burleson Centennial,96.89,133.81,72.57,129.27,335.66,Single-ply,SBD,M,
Boys,99.79,DQ,Will Asalele,Burleson,98.7,226.8,151.95,,,Single-ply,SBD,M,
Boys,109.77,1,Caleb Banks,Burleson,100.88,251.74,127.01,242.67,621.42,Single-ply,SBD,M,
Boys,109.77,2,Jace Martin,Midlothian,105.6,215.46,108.86,219.99,544.31,Single-ply,SBD,M,
Boys,109.77,3,Cooper Zalazny,Joshua,105.78,206.38,113.4,188.24,508.02,Single-ply,SBD,M,
Boys,109.77,4,Brydon Devore,Joshua,109.23,185.97,136.08,158.76,480.81,Single-ply,SBD,M,
Boys,109.77,5,Elijah Carlisle,Burleson Centennial,103.51,147.42,106.59,188.24,442.25,Single-ply,SBD,M,
Boys,109.77,6,Loggan Birch,Burleson Centennial,103.6,147.42,108.86,181.44,437.72,Single-ply,SBD,M,
Boys,109.77,7,Gregory Corley,Joshua,106.68,183.7,106.59,142.88,433.18,Single-ply,SBD,M,
Boys,124.74,1,Klaus Schoenborn,Burleson,116.03,251.74,120.2,226.8,598.74,Single-ply,SBD,M,
Boys,124.74,2,Jared Negrete,Burleson,122.74,238.14,138.35,219.99,596.47,Single-ply,SBD,M,
Boys,124.74,3,Cesar Reyes,Alvarado,118.3,190.51,140.61,199.58,530.7,Single-ply,SBD,M,
Boys,124.74,4,Chandler Poggensee,Burleson,117.03,190.51,131.54,206.38,528.44,Single-ply,SBD,M,
Boys,124.74,5,Harlen Perkins,Burleson,122.56,210.92,120.2,185.97,517.1,Single-ply,SBD,M,
Boys,124.74,6,Wesley Hillis,Cleburne,124.74,190.51,115.67,206.38,512.56,Single-ply,SBD,M,
Boys,124.74,7,Gavin Mickey,Godley,124.47,136.08,90.72,136.08,362.87,Single-ply,SBD,M,
Boys,124.74+,1,Evan Baltazer,Burleson,142.07,256.28,129.27,258.55,644.1,Single-ply,SBD,M,
Boys,124.74+,2,Brody Nors,Burleson Centennial,142.7,226.8,158.76,215.46,601.01,Single-ply,SBD,M,
Boys,124.74+,3,Josh Rangel,Cleburne,135.99,256.28,136.08,206.38,598.74,Single-ply,SBD,M,
Boys,124.74+,4,Hesjar Martinez,Midlothian,136.98,217.72,161.03,201.85,580.6,Single-ply,SBD,M,
Boys,124.74+,5,Aaron Mercado,Burleson Centennial,157.76,210.92,124.74,199.58,535.24,Single-ply,SBD,M,
Boys,124.74+,6,Brentley Smith,Cleburne,134.9,219.99,108.86,176.9,505.76,Single-ply,SBD,M,
Boys,124.74+,7,Davy Fleming,Burleson Centennial,130.18,167.83,127.01,204.12,498.95,Single-ply,SBD,M,
Boys,124.74+,8,David Ramos,Midlothian,143.52,188.24,108.86,199.58,496.68,Single-ply,SBD,M,
Boys,124.74+,DQ,Brady Tawwatters,Godley,134.17,174.63,77.11,,,Single-ply,SBD,M,
